[
  {
    "block": "minecraft:acacia_leaves",
    "x": 2,
    "y": 2,
    "z": 3
  },
  {
    "block": "minecraft:acacia_leaves",
    "x": 0,
    "y": 2,
    "z": 5
  },
  {
    "block": "minecraft:acacia_leaves",
    "x": 1,
    "y": 2,
    "z": 3
  },
  {
    "block": "minecraft:acacia_leaves",
    "x": -1,
    "y": 2,
    "z": 5
  },
  {
    "block": "minecraft:acacia_leaves",
    "x": 1,
    "y": 2,
    "z": 5
  },
  {
    "block": "minecraft:acacia_leaves",
    "x": 3,
    "y": 4,
    "z": 0
  },
  {
    "block": "minecraft:acacia_leaves",
    "x": 0,
    "y": 2,
    "z": 1
  },
  {
    "block": "minecraft:acacia_leaves",
    "x": -2,
    "y": 2,
    "z": 3
  },
  {
    "block": "minecraft:acacia_leaves",
    "x": 2,
    "y": 4,
    "z": 0
  },
  {
    "block": "minecraft:acacia_leaves",
    "x": -1,
    "y": 2,
    "z": 1
  },
  {
    "block": "minecraft:acacia_log",
    "x": 0,
    "y": 2,
    "z": 3
  },
  {
    "block": "minecraft:acacia_leaves",
    "x": 1,
    "y": 2,
    "z": 1
  },
  {
    "block": "minecraft:acacia_leaves",
    "x": -1,
    "y": 2,
    "z": 3
  },
  {
    "block": "minecraft:acacia_leaves",
    "x": 3,
    "y": 4,
    "z": -4
  },
  {
    "block": "minecraft:acacia_leaves",
    "x": 1,
    "y": 4,
    "z": -2
  },
  {
    "block": "minecraft:acacia_leaves",
    "x": -1,
    "y": 4,
    "z": 0
  },
  {
    "block": "minecraft:acacia_leaves",
    "x": 2,
    "y": 4,
    "z": -4
  },
  {
    "block": "minecraft:acacia_log",
    "x": 0,
    "y": 4,
    "z": -2
  },
  {
    "block": "minecraft:acacia_leaves",
    "x": -2,
    "y": 4,
    "z": 0
  },
  {
    "block": "minecraft:acacia_leaves",
    "x": 3,
    "y": 4,
    "z": -2
  },
  {
    "block": "minecraft:acacia_leaves",
    "x": 1,
    "y": 4,
    "z": 0
  },
  {
    "block": "minecraft:acacia_leaves",
    "x": 2,
    "y": 4,
    "z": -2
  },
  {
    "block": "minecraft:acacia_leaves",
    "x": 0,
    "y": 4,
    "z": 0
  },
  {
    "block": "minecraft:acacia_leaves",
    "x": -1,
    "y": 4,
    "z": -4
  },
  {
    "block": "minecraft:acacia_leaves",
    "x": -3,
    "y": 4,
    "z": -2
  },
  {
    "block": "minecraft:acacia_leaves",
    "x": -2,
    "y": 4,
    "z": -4
  },
  {
    "block": "minecraft:acacia_leaves",
    "x": 1,
    "y": 4,
    "z": -4
  },
  {
    "block": "minecraft:acacia_leaves",
    "x": -1,
    "y": 4,
    "z": -2
  },
  {
    "block": "minecraft:acacia_leaves",
    "x": -3,
    "y": 4,
    "z": 0
  },
  {
    "block": "minecraft:acacia_leaves",
    "x": 0,
    "y": 4,
    "z": -4
  },
  {
    "block": "minecraft:acacia_leaves",
    "x": -2,
    "y": 4,
    "z": -2
  },
  {
    "block": "minecraft:acacia_leaves",
    "x": -3,
    "y": 4,
    "z": -4
  },
  {
    "block": "minecraft:acacia_leaves",
    "x": 1,
    "y": 3,
    "z": 4
  },
  {
    "block": "minecraft:acacia_leaves",
    "x": 0,
    "y": 3,
    "z": 2
  },
  {
    "block": "minecraft:acacia_log",
    "x": 0,
    "y": 1,
    "z": -1
  },
  {
    "block": "minecraft:acacia_leaves",
    "x": -1,
    "y": 3,
    "z": 2
  },
  {
    "block": "minecraft:acacia_leaves",
    "x": 0,
    "y": 3,
    "z": 4
  },
  {
    "block": "minecraft:acacia_log",
    "x": 0,
    "y": 1,
    "z": 1
  },
  {
    "block": "minecraft:acacia_leaves",
    "x": 1,
    "y": 3,
    "z": 2
  },
  {
    "block": "minecraft:acacia_leaves",
    "x": -1,
    "y": 3,
    "z": 4
  },
  {
    "block": "minecraft:acacia_log",
    "x": 0,
    "y": 3,
    "z": -2
  },
  {
    "block": "minecraft:acacia_leaves",
    "x": 1,
    "y": 5,
    "z": -1
  },
  {
    "block": "minecraft:acacia_leaves",
    "x": 0,
    "y": 5,
    "z": -1
  },
  {
    "block": "minecraft:acacia_leaves",
    "x": -1,
    "y": 5,
    "z": -3
  },
  {
    "block": "minecraft:acacia_leaves",
    "x": 1,
    "y": 5,
    "z": -3
  },
  {
    "block": "minecraft:acacia_leaves",
    "x": -1,
    "y": 5,
    "z": -1
  },
  {
    "block": "minecraft:acacia_leaves",
    "x": 0,
    "y": 5,
    "z": -3
  },
  {
    "block": "minecraft:acacia_leaves",
    "x": 1,
    "y": 2,
    "z": 4
  },
  {
    "block": "minecraft:acacia_leaves",
    "x": 2,
    "y": 2,
    "z": 2
  },
  {
    "block": "minecraft:acacia_leaves",
    "x": 0,
    "y": 2,
    "z": 4
  },
  {
    "block": "minecraft:acacia_leaves",
    "x": 2,
    "y": 2,
    "z": 4
  },
  {
    "block": "minecraft:acacia_leaves",
    "x": 2,
    "y": 4,
    "z": 1
  },
  {
    "block": "minecraft:acacia_leaves",
    "x": -1,
    "y": 2,
    "z": 2
  },
  {
    "block": "minecraft:acacia_leaves",
    "x": 3,
    "y": 4,
    "z": -1
  },
  {
    "block": "minecraft:acacia_leaves",
    "x": 1,
    "y": 4,
    "z": 1
  },
  {
    "block": "minecraft:acacia_leaves",
    "x": -2,
    "y": 2,
    "z": 2
  },
  {
    "block": "minecraft:acacia_leaves",
    "x": 1,
    "y": 2,
    "z": 2
  },
  {
    "block": "minecraft:acacia_leaves",
    "x": -1,
    "y": 2,
    "z": 4
  },
  {
    "block": "minecraft:acacia_leaves",
    "x": 0,
    "y": 2,
    "z": 2
  },
  {
    "block": "minecraft:acacia_leaves",
    "x": -2,
    "y": 2,
    "z": 4
  },
  {
    "block": "minecraft:acacia_leaves",
    "x": 2,
    "y": 4,
    "z": -3
  },
  {
    "block": "minecraft:acacia_leaves",
    "x": 0,
    "y": 4,
    "z": -1
  },
  {
    "block": "minecraft:acacia_leaves",
    "x": -2,
    "y": 4,
    "z": 1
  },
  {
    "block": "minecraft:acacia_leaves",
    "x": 1,
    "y": 4,
    "z": -3
  },
  {
    "block": "minecraft:acacia_leaves",
    "x": -1,
    "y": 4,
    "z": -1
  },
  {
    "block": "minecraft:acacia_leaves",
    "x": 2,
    "y": 4,
    "z": -1
  },
  {
    "block": "minecraft:acacia_leaves",
    "x": 0,
    "y": 4,
    "z": 1
  },
  {
    "block": "minecraft:acacia_leaves",
    "x": 3,
    "y": 4,
    "z": -3
  },
  {
    "block": "minecraft:acacia_log",
    "x": 0,
    "y": 2,
    "z": -2
  },
  {
    "block": "minecraft:acacia_leaves",
    "x": 1,
    "y": 4,
    "z": -1
  },
  {
    "block": "minecraft:acacia_leaves",
    "x": -1,
    "y": 4,
    "z": 1
  },
  {
    "block": "minecraft:acacia_leaves",
    "x": 0,
    "y": 4,
    "z": -5
  },
  {
    "block": "minecraft:acacia_leaves",
    "x": -2,
    "y": 4,
    "z": -3
  },
  {
    "block": "minecraft:acacia_leaves",
    "x": -1,
    "y": 4,
    "z": -5
  },
  {
    "block": "minecraft:acacia_leaves",
    "x": -3,
    "y": 4,
    "z": -3
  },
  {
    "block": "minecraft:acacia_leaves",
    "x": 2,
    "y": 4,
    "z": -5
  },
  {
    "block": "minecraft:acacia_leaves",
    "x": 0,
    "y": 4,
    "z": -3
  },
  {
    "block": "minecraft:acacia_leaves",
    "x": -2,
    "y": 4,
    "z": -1
  },
  {
    "block": "minecraft:acacia_leaves",
    "x": 1,
    "y": 4,
    "z": -5
  },
  {
    "block": "minecraft:acacia_leaves",
    "x": -1,
    "y": 4,
    "z": -3
  },
  {
    "block": "minecraft:acacia_leaves",
    "x": -3,
    "y": 4,
    "z": -1
  },
  {
    "block": "minecraft:acacia_leaves",
    "x": -2,
    "y": 4,
    "z": -5
  },
  {
    "block": "minecraft:acacia_leaves",
    "x": -1,
    "y": 3,
    "z": 3
  },
  {
    "block": "minecraft:acacia_log",
    "x": 0,
    "y": 1,
    "z": 2
  },
  {
    "block": "minecraft:acacia_leaves",
    "x": 1,
    "y": 3,
    "z": 3
  },
  {
    "block": "minecraft:acacia_leaves",
    "x": 0,
    "y": 3,
    "z": 3
  },
  {
    "block": "minecraft:acacia_leaves",
    "x": 2,
    "y": 5,
    "z": -2
  },
  {
    "block": "minecraft:acacia_leaves",
    "x": 0,
    "y": 5,
    "z": 0
  },
  {
    "block": "minecraft:acacia_leaves",
    "x": 1,
    "y": 5,
    "z": -2
  },
  {
    "block": "minecraft:acacia_leaves",
    "x": 0,
    "y": 5,
    "z": -4
  },
  {
    "block": "minecraft:acacia_leaves",
    "x": -2,
    "y": 5,
    "z": -2
  },
  {
    "block": "minecraft:acacia_leaves",
    "x": 0,
    "y": 5,
    "z": -2
  },
  {
    "block": "minecraft:acacia_leaves",
    "x": -1,
    "y": 5,
    "z": -2
  }
]