[
  {
    "block": "minecraft:birch_leaves",
    "x": 2,
    "y": 3,
    "z": -1
  },
  {
    "block": "minecraft:birch_leaves",
    "x": 0,
    "y": 3,
    "z": 1
  },
  {
    "block": "minecraft:birch_leaves",
    "x": 1,
    "y": 3,
    "z": -1
  },
  {
    "block": "minecraft:birch_leaves",
    "x": -1,
    "y": 3,
    "z": 1
  },
  {
    "block": "minecraft:birch_leaves",
    "x": 2,
    "y": 3,
    "z": 1
  },
  {
    "block": "minecraft:birch_log",
    "x": 0,
    "y": 1,
    "z": 0
  },
  {
    "block": "minecraft:birch_leaves",
    "x": 1,
    "y": 3,
    "z": 1
  },
  {
    "block": "minecraft:birch_leaves",
    "x": -2,
    "y": 3,
    "z": -1
  },
  {
    "block": "minecraft:birch_leaves",
    "x": -1,
    "y": 5,
    "z": 0
  },
  {
    "block": "minecraft:birch_leaves",
    "x": 0,
    "y": 3,
    "z": -1
  },
  {
    "block": "minecraft:birch_leaves",
    "x": 1,
    "y": 5,
    "z": 0
  },
  {
    "block": "minecraft:birch_leaves",
    "x": -2,
    "y": 3,
    "z": 1
  },
  {
    "block": "minecraft:birch_leaves",
    "x": -1,
    "y": 3,
    "z": -1
  },
  {
    "block": "minecraft:birch_leaves",
    "x": 0,
    "y": 5,
    "z": 0
  },
  {
    "block": "minecraft:birch_leaves",
    "x": 2,
    "y": 2,
    "z": 1
  },
  {
    "block": "minecraft:birch_leaves",
    "x": 1,
    "y": 2,
    "z": -1
  },
  {
    "block": "minecraft:birch_leaves",
    "x": -1,
    "y": 2,
    "z": 1
  },
  {
    "block": "minecraft:birch_leaves",
    "x": 0,
    "y": 2,
    "z": -1
  },
  {
    "block": "minecraft:birch_leaves",
    "x": 1,
    "y": 4,
    "z": 0
  },
  {
    "block": "minecraft:birch_leaves",
    "x": -2,
    "y": 2,
    "z": 1
  },
  {
    "block": "minecraft:birch_leaves",
    "x": 1,
    "y": 2,
    "z": 1
  },
  {
    "block": "minecraft:birch_leaves",
    "x": 2,
    "y": 2,
    "z": -1
  },
  {
    "block": "minecraft:birch_leaves",
    "x": 0,
    "y": 2,
    "z": 1
  },
  {
    "block": "minecraft:birch_leaves",
    "x": -1,
    "y": 2,
    "z": -1
  },
  {
    "block": "minecraft:birch_log",
    "x": 0,
    "y": 4,
    "z": 0
  },
  {
    "block": "minecraft:birch_leaves",
    "x": -2,
    "y": 2,
    "z": -1
  },
  {
    "block": "minecraft:birch_leaves",
    "x": -1,
    "y": 4,
    "z": 0
  },
  {
    "block": "minecraft:birch_leaves",
    "x": 2,
    "y": 3,
    "z": 2
  },
  {
    "block": "minecraft:birch_leaves",
    "x": 1,
    "y": 3,
    "z": 0
  },
  {
    "block": "minecraft:birch_leaves",
    "x": -1,
    "y": 3,
    "z": 2
  },
  {
    "block": "minecraft:birch_leaves",
    "x": 2,
    "y": 3,
    "z": -2
  },
  {
    "block": "minecraft:birch_log",
    "x": 0,
    "y": 3,
    "z": 0
  },
  {
    "block": "minecraft:birch_leaves",
    "x": -2,
    "y": 3,
    "z": 2
  },
  {
    "block": "minecraft:birch_leaves",
    "x": 1,
    "y": 3,
    "z": 2
  },
  {
    "block": "minecraft:birch_leaves",
    "x": 2,
    "y": 3,
    "z": 0
  },
  {
    "block": "minecraft:birch_leaves",
    "x": 0,
    "y": 3,
    "z": 2
  },
  {
    "block": "minecraft:birch_leaves",
    "x": -1,
    "y": 3,
    "z": -2
  },
  {
    "block": "minecraft:birch_leaves",
    "x": 0,
    "y": 5,
    "z": -1
  },
  {
    "block": "minecraft:birch_leaves",
    "x": -2,
    "y": 3,
    "z": -2
  },
  {
    "block": "minecraft:birch_leaves",
    "x": 1,
    "y": 3,
    "z": -2
  },
  {
    "block": "minecraft:birch_leaves",
    "x": -1,
    "y": 3,
    "z": 0
  },
  {
    "block": "minecraft:birch_leaves",
    "x": 0,
    "y": 5,
    "z": 1
  },
  {
    "block": "minecraft:birch_leaves",
    "x": 0,
    "y": 3,
    "z": -2
  },
  {
    "block": "minecraft:birch_leaves",
    "x": -2,
    "y": 3,
    "z": 0
  },
  {
    "block": "minecraft:birch_leaves",
    "x": 2,
    "y": 2,
    "z": 2
  },
  {
    "block": "minecraft:birch_leaves",
    "x": 1,
    "y": 2,
    "z": 2
  },
  {
    "block": "minecraft:birch_log",
    "x": 0,
    "y": 2,
    "z": 0
  },
  {
    "block": "minecraft:birch_leaves",
    "x": -2,
    "y": 2,
    "z": 2
  },
  {
    "block": "minecraft:birch_leaves",
    "x": 1,
    "y": 2,
    "z": -2
  },
  {
    "block": "minecraft:birch_leaves",
    "x": -1,
    "y": 2,
    "z": 0
  },
  {
    "block": "minecraft:birch_leaves",
    "x": 0,
    "y": 4,
    "z": 1
  },
  {
    "block": "minecraft:birch_leaves",
    "x": 2,
    "y": 2,
    "z": 0
  },
  {
    "block": "minecraft:birch_leaves",
    "x": 0,
    "y": 2,
    "z": 2
  },
  {
    "block": "minecraft:birch_leaves",
    "x": 1,
    "y": 2,
    "z": 0
  },
  {
    "block": "minecraft:birch_leaves",
    "x": -1,
    "y": 2,
    "z": 2
  },
  {
    "block": "minecraft:birch_leaves",
    "x": -2,
    "y": 2,
    "z": -2
  },
  {
    "block": "minecraft:birch_leaves",
    "x": 0,
    "y": 2,
    "z": -2
  },
  {
    "block": "minecraft:birch_leaves",
    "x": 1,
    "y": 4,
    "z": -1
  },
  {
    "block": "minecraft:birch_leaves",
    "x": -2,
    "y": 2,
    "z": 0
  },
  {
    "block": "minecraft:birch_leaves",
    "x": -1,
    "y": 4,
    "z": 1
  },
  {
    "block": "minecraft:birch_leaves",
    "x": -1,
    "y": 2,
    "z": -2
  },
  {
    "block": "minecraft:birch_leaves",
    "x": 0,
    "y": 4,
    "z": -1
  }
]