{
  "parent": "block/cube_bottom_top",
  "textures": {
    "bottom": "tardis:blocks/anti_grav/bottom",
    "top": "tardis:blocks/anti_grav/top_off",
    "side": "tardis:blocks/anti_grav/side_off"
  }
}