{
	"credit": "Made with Blockbench",
	"texture_size": [64, 64],
	"textures": {
		"1": "tardis:blocks/artron_energy",
		"2": "tardis:blocks/artron_emitter",
		"particle": "tardis:blocks/artron_emitter"
	},
	"elements": [
		{
			"from": [5, 0, 5],
			"to": [11, 16, 11],
			"faces": {
				"north": {"uv": [3.25, 3.25, 4.75, 7.25], "texture": "#2"},
				"east": {"uv": [4.75, 4.75, 6.25, 8.75], "texture": "#2"},
				"south": {"uv": [4.75, 0, 6.25, 4], "texture": "#2"},
				"west": {"uv": [0, 5.5, 1.5, 9.5], "texture": "#2"},
				"up": {"uv": [4.5, 8.75, 3, 7.25], "texture": "#2"},
				"down": {"uv": [9, 2.5, 7.5, 4], "texture": "#2"}
			}
		},
		{
			"from": [5, 5, 0],
			"to": [11, 11, 5],
			"faces": {
				"north": {"uv": [7.5, 4, 9, 5.5], "rotation": 90, "texture": "#2"},
				"east": {"uv": [10.5, 3.75, 9, 5], "rotation": 270, "texture": "#2"},
				"south": {"uv": [7.75, 7.75, 9.25, 9.25], "rotation": 270, "texture": "#2"},
				"west": {"uv": [10.5, 3.75, 9, 2.5], "rotation": 270, "texture": "#2"},
				"up": {"uv": [4.5, 8.75, 5.75, 10.25], "rotation": 270, "texture": "#2"},
				"down": {"uv": [1.5, 9, 2.75, 10.5], "rotation": 270, "texture": "#2"}
			}
		},
		{
			"from": [5, 5, 11],
			"to": [11, 11, 16],
			"faces": {
				"north": {"uv": [7.5, 4, 9, 5.5], "rotation": 90, "texture": "#2"},
				"east": {"uv": [10.5, 3.75, 9, 5], "rotation": 270, "texture": "#2"},
				"south": {"uv": [7.75, 7.75, 9.25, 9.25], "rotation": 270, "texture": "#2"},
				"west": {"uv": [10.5, 3.75, 9, 2.5], "rotation": 270, "texture": "#2"},
				"up": {"uv": [4.5, 8.75, 5.75, 10.25], "rotation": 270, "texture": "#2"},
				"down": {"uv": [1.5, 9, 2.75, 10.5], "rotation": 270, "texture": "#2"}
			}
		},
		{
			"from": [11, 5, 5],
			"to": [16, 11, 11],
			"faces": {
				"north": {"uv": [10.5, 6.5, 9.25, 8], "rotation": 180, "texture": "#2"},
				"east": {"uv": [7.75, 5.5, 9.25, 7], "rotation": 270, "texture": "#2"},
				"south": {"uv": [10.5, 6.5, 9.25, 5], "texture": "#2"},
				"west": {"uv": [3, 8.75, 4.5, 10.25], "rotation": 90, "texture": "#2"},
				"up": {"uv": [7.75, 9.25, 9, 10.75], "rotation": 180, "texture": "#2"},
				"down": {"uv": [9, 9.25, 10.25, 10.75], "texture": "#2"}
			}
		},
		{
			"from": [0, 5, 5],
			"to": [5, 11, 11],
			"faces": {
				"north": {"uv": [10.5, 6.5, 9.25, 8], "rotation": 180, "texture": "#2"},
				"east": {"uv": [7.75, 5.5, 9.25, 7], "rotation": 270, "texture": "#2"},
				"south": {"uv": [10.5, 6.5, 9.25, 5], "texture": "#2"},
				"west": {"uv": [3, 8.75, 4.5, 10.25], "rotation": 90, "texture": "#2"},
				"up": {"uv": [7.75, 9.25, 9, 10.75], "rotation": 180, "texture": "#2"},
				"down": {"uv": [9, 9.25, 10.25, 10.75], "texture": "#2"}
			}
		},
		{
			"name": "octagon",
			"from": [5.3159, 2.685, 1.52],
			"to": [10.6841, 13.405, 14.48],
			"faces": {
				"north": {"uv": [3.25, 0, 4.5, 2.75], "texture": "#2"},
				"east": {"uv": [0, 2.75, 3.25, 5.5], "texture": "#2"},
				"south": {"uv": [6.25, 2.5, 7.5, 5.25], "texture": "#2"},
				"west": {"uv": [0, 0, 3.25, 2.75], "texture": "#2"},
				"up": {"uv": [9.5, 1.25, 6.25, 0], "rotation": 270, "texture": "#2"},
				"down": {"uv": [9.5, 1.25, 6.25, 2.5], "rotation": 90, "texture": "#2"}
			}
		},
		{
			"name": "octagon",
			"from": [1.52, 2.685, 5.3159],
			"to": [14.48, 13.405, 10.6841],
			"faces": {
				"north": {"uv": [0, 2.75, 3.25, 5.5], "texture": "#2"},
				"east": {"uv": [6.25, 2.5, 7.5, 5.25], "texture": "#2"},
				"south": {"uv": [0, 0, 3.25, 2.75], "texture": "#2"},
				"west": {"uv": [3.25, 0, 4.5, 2.75], "texture": "#2"},
				"up": {"uv": [9.5, 1.25, 6.25, 0], "rotation": 180, "texture": "#2"},
				"down": {"uv": [9.5, 1.25, 6.25, 2.5], "rotation": 180, "texture": "#2"}
			}
		},
		{
			"name": "octagon",
			"from": [5.01766, 12.9, 0.8],
			"to": [10.98234, 14.7, 15.2],
			"faces": {
				"north": {"uv": [3.25, 2.75, 4.75, 3.25], "texture": "#2"},
				"east": {"uv": [9.25, 8, 12.75, 8.5], "texture": "#2"},
				"south": {"uv": [4.75, 4, 6.25, 4.5], "texture": "#2"},
				"west": {"uv": [9.25, 8.5, 12.75, 9], "texture": "#2"},
				"up": {"uv": [3, 9, 1.5, 5.5], "texture": "#2"},
				"down": {"uv": [7.75, 6.25, 6.25, 9.75], "texture": "#2"}
			}
		},
		{
			"name": "octagon",
			"from": [0.8, 12.9, 5.01766],
			"to": [15.2, 14.7, 10.98234],
			"rotation": {"angle": -45, "axis": "y", "origin": [8, 8, 8]},
			"faces": {
				"north": {"uv": [9.25, 8, 12.75, 8.5], "texture": "#2"},
				"east": {"uv": [4.75, 4, 6.25, 4.5], "texture": "#2"},
				"south": {"uv": [9.25, 8.5, 12.75, 9], "texture": "#2"},
				"west": {"uv": [3.25, 2.75, 4.75, 3.25], "texture": "#2"},
				"up": {"uv": [3, 9, 1.5, 5.5], "rotation": 270, "texture": "#2"},
				"down": {"uv": [7.75, 6.25, 6.25, 9.75], "rotation": 90, "texture": "#2"}
			}
		},
		{
			"name": "octagon",
			"from": [0.8, 12.9, 5.01766],
			"to": [15.2, 14.7, 10.98234],
			"faces": {
				"north": {"uv": [9.25, 8, 12.75, 8.5], "texture": "#2"},
				"east": {"uv": [4.75, 4, 6.25, 4.5], "texture": "#2"},
				"south": {"uv": [9.25, 8.5, 12.75, 9], "texture": "#2"},
				"west": {"uv": [3.25, 2.75, 4.75, 3.25], "texture": "#2"},
				"up": {"uv": [3, 9, 1.5, 5.5], "rotation": 270, "texture": "#2"},
				"down": {"uv": [7.75, 6.25, 6.25, 9.75], "rotation": 90, "texture": "#2"}
			}
		},
		{
			"name": "octagon",
			"from": [0.8, 12.9, 5.01766],
			"to": [15.2, 14.7, 10.98234],
			"rotation": {"angle": 45, "axis": "y", "origin": [8, 8, 8]},
			"faces": {
				"north": {"uv": [9.25, 8, 12.75, 8.5], "texture": "#2"},
				"east": {"uv": [4.75, 4, 6.25, 4.5], "texture": "#2"},
				"south": {"uv": [9.25, 8.5, 12.75, 9], "texture": "#2"},
				"west": {"uv": [3.25, 2.75, 4.75, 3.25], "texture": "#2"},
				"up": {"uv": [3, 9, 1.5, 5.5], "rotation": 270, "texture": "#2"},
				"down": {"uv": [7.75, 6.25, 6.25, 9.75], "rotation": 90, "texture": "#2"}
			}
		},
		{
			"name": "octagon",
			"from": [5.01766, 0.9, 0.8],
			"to": [10.98234, 2.7, 15.2],
			"faces": {
				"north": {"uv": [3.25, 2.75, 4.75, 3.25], "texture": "#2"},
				"east": {"uv": [9.25, 8, 12.75, 8.5], "texture": "#2"},
				"south": {"uv": [4.75, 4, 6.25, 4.5], "texture": "#2"},
				"west": {"uv": [9.25, 8.5, 12.75, 9], "texture": "#2"},
				"up": {"uv": [3, 9, 1.5, 5.5], "texture": "#2"},
				"down": {"uv": [7.75, 6.25, 6.25, 9.75], "texture": "#2"}
			}
		},
		{
			"name": "octagon",
			"from": [0.8, 0.9, 5.01766],
			"to": [15.2, 2.7, 10.98234],
			"rotation": {"angle": -45, "axis": "y", "origin": [8, 8, 8]},
			"faces": {
				"north": {"uv": [9.25, 8, 12.75, 8.5], "texture": "#2"},
				"east": {"uv": [4.75, 4, 6.25, 4.5], "texture": "#2"},
				"south": {"uv": [9.25, 8.5, 12.75, 9], "texture": "#2"},
				"west": {"uv": [3.25, 2.75, 4.75, 3.25], "texture": "#2"},
				"up": {"uv": [3, 9, 1.5, 5.5], "rotation": 270, "texture": "#2"},
				"down": {"uv": [7.75, 6.25, 6.25, 9.75], "rotation": 90, "texture": "#2"}
			}
		},
		{
			"name": "octagon",
			"from": [0.8, 0.9, 5.01766],
			"to": [15.2, 2.7, 10.98234],
			"faces": {
				"north": {"uv": [9.25, 8, 12.75, 8.5], "texture": "#2"},
				"east": {"uv": [4.75, 4, 6.25, 4.5], "texture": "#2"},
				"south": {"uv": [9.25, 8.5, 12.75, 9], "texture": "#2"},
				"west": {"uv": [3.25, 2.75, 4.75, 3.25], "texture": "#2"},
				"up": {"uv": [3, 9, 1.5, 5.5], "rotation": 270, "texture": "#2"},
				"down": {"uv": [7.75, 6.25, 6.25, 9.75], "rotation": 90, "texture": "#2"}
			}
		},
		{
			"name": "octagon",
			"from": [0.8, 0.9, 5.01766],
			"to": [15.2, 2.7, 10.98234],
			"rotation": {"angle": 45, "axis": "y", "origin": [8, 8, 8]},
			"faces": {
				"north": {"uv": [9.25, 8, 12.75, 8.5], "texture": "#2"},
				"east": {"uv": [4.75, 4, 6.25, 4.5], "texture": "#2"},
				"south": {"uv": [9.25, 8.5, 12.75, 9], "texture": "#2"},
				"west": {"uv": [3.25, 2.75, 4.75, 3.25], "texture": "#2"},
				"up": {"uv": [3, 9, 1.5, 5.5], "rotation": 270, "texture": "#2"},
				"down": {"uv": [7.75, 6.25, 6.25, 9.75], "rotation": 90, "texture": "#2"}
			}
		},
		{
			"name": "octagon",
			"from": [5.3159, 2.685, 2.42],
			"to": [10.6841, 13.405, 13.58],
			"rotation": {"angle": 45, "axis": "y", "origin": [8, 8, 8]},
			"faces": {
				"north": {"uv": [0, 0, 16, 16], "texture": "#1"},
				"east": {"uv": [0, 0, 16, 16], "texture": "#1"},
				"south": {"uv": [0, 0, 16, 16], "texture": "#1"},
				"west": {"uv": [0, 0, 16, 16], "texture": "#1"},
				"up": {"uv": [0, 0, 16, 16], "texture": "#1"},
				"down": {"uv": [0, 0, 16, 16], "texture": "#1"}
			}
		},
		{
			"name": "octagon",
			"from": [2.42, 2.685, 5.3159],
			"to": [13.58, 13.405, 10.6841],
			"rotation": {"angle": 45, "axis": "y", "origin": [8, 8, 8]},
			"faces": {
				"north": {"uv": [0, 0, 16, 16], "texture": "#1"},
				"east": {"uv": [0, 0, 16, 16], "texture": "#1"},
				"south": {"uv": [0, 0, 16, 16], "texture": "#1"},
				"west": {"uv": [0, 0, 16, 16], "texture": "#1"},
				"up": {"uv": [0, 0, 16, 16], "rotation": 270, "texture": "#1"},
				"down": {"uv": [0, 0, 16, 16], "rotation": 90, "texture": "#1"}
			}
		}
	],
	"display": {
		"thirdperson_righthand": {
			"rotation": [75, 45, 0],
			"translation": [0, 2.5, 0],
			"scale": [0.375, 0.375, 0.375]
		},
		"thirdperson_lefthand": {
			"rotation": [75, 45, 0],
			"translation": [0, 2.5, 0],
			"scale": [0.375, 0.375, 0.375]
		},
		"firstperson_righthand": {
			"rotation": [0, 45, 0],
			"scale": [0.4, 0.4, 0.4]
		},
		"firstperson_lefthand": {
			"rotation": [0, 225, 0],
			"scale": [0.4, 0.4, 0.4]
		},
		"ground": {
			"translation": [0, 3, 0],
			"scale": [0.25, 0.25, 0.25]
		},
		"gui": {
			"rotation": [30, 225, 0],
			"translation": [0, 0.25, 0],
			"scale": [0.625, 0.625, 0.625]
		},
		"head": {
			"translation": [0, 13.5, 0.25]
		},
		"fixed": {
			"scale": [0.5, 0.5, 0.5]
		}
	},
	"groups": [
		{
			"name": "contacts",
			"origin": [8, 8, 8],
			"children": [0, 1, 2, 3, 4]
		},
		{
			"name": "shaft",
			"origin": [8, 8, 8],
			"children": [5, 6]
		},
		{
			"name": "end",
			"origin": [8, 8, 8],
			"children": [7, 8, 9, 10]
		},
		{
			"name": "end",
			"origin": [8, 8, 8],
			"children": [11, 12, 13, 14]
		},
		{
			"name": "group",
			"origin": [8, 8, 8],
			"children": [15, 16]
		}
	]
}