{
	"parent": "block/cube_bottom_top",
    "textures": {
        "side": "tardis:blocks/technology/tech_floor_dark_pipes",
        "top":"tardis:blocks/technology/tech_wall_dark_blank",
        "bottom":"tardis:blocks/technology/tech_wall_dark_blank"
    }
}