{
    "variants": {
        "facing=up": { "model": "tardis:block/artron_tap", "x": -90 },
        "facing=down": { "model": "tardis:block/artron_tap", "x": 90 },
        "facing=north": { "model": "tardis:block/artron_tap", "y": 0 },
        "facing=south": { "model": "tardis:block/artron_tap", "y": 180 },
        "facing=west": { "model": "tardis:block/artron_tap", "y": 270 },
        "facing=east": { "model": "tardis:block/artron_tap", "y": 90 }
    }
}
