{
    "variants": {
        "type=bottom": { "model": "tardis:block/gallifreyan_yellow_slab" },
        "type=top": { "model": "tardis:block/gallifreyan_yellow_slab_top" },
        "type=double": { "model": "tardis:block/gallifreyan_yellow" }
    }
}