{
    "variants": {
      "type=bottom": { "model": "tardis:block/tech_floor_plate_slab" },
      "type=top": { "model": "tardis:block/tech_floor_plate_slab_top" },
      "type=double": { "model": "tardis:block/tech_floor_plate" }
    }
}