{
	"credit": "Made with Blockbench",
  "texture_size": [
    32,
    32
  ],
	"textures": {
      "0": "tardis:item/chameleon_circuit",
      "particle": "tardis:item/chameleon_circuit"
	},
	"elements": [
		{
          "from": [
            5.75,
            0,
            5.75
          ],
          "to": [
            10.25,
            0.75,
            10.25
          ],
          "rotation": {
            "angle": 0,
            "axis": "y",
            "origin": [
              8.01479,
              0.60116,
              7.99
            ]
          },
			"faces": {
              "north": {
                "uv": [
                  11.5,
                  4,
                  14,
                  4.5
                ],
                "texture": "#0"
              },
              "east": {
                "uv": [
                  10,
                  3.5,
                  12.5,
                  4
                ],
                "texture": "#0"
              },
              "south": {
                "uv": [
                  9.5,
                  3.5,
                  12,
                  4
                ],
                "texture": "#0"
              },
              "west": {
                "uv": [
                  10.5,
                  3.5,
                  13,
                  4
                ],
                "texture": "#0"
              },
              "up": {
                "uv": [
                  4,
                  4,
                  1.5,
                  1.5
                ],
                "texture": "#0"
              },
              "down": {
                "uv": [
                  13.5,
                  2.5,
                  11,
                  5
                ],
                "texture": "#0"
              }
			}
		},
		{
          "from": [
            7.13168,
            0.19477,
            10.46875
          ],
          "to": [
            7.38168,
            0.69477,
            11.46875
          ],
          "rotation": {
            "angle": 0,
            "axis": "y",
            "origin": [
              8.01479,
              0.60116,
              7.99
            ]
          },
			"faces": {
              "north": {
                "uv": [
                  8,
                  12,
                  8.5,
                  12.5
                ],
                "texture": "#0"
              },
              "east": {
                "uv": [
                  7.5,
                  13.5,
                  8,
                  14
                ],
                "texture": "#0"
              },
              "south": {
                "uv": [
                  8.5,
                  12,
                  9,
                  12.5
                ],
                "texture": "#0"
              },
              "west": {
                "uv": [
                  8,
                  12.5,
                  8.5,
                  13
                ],
                "texture": "#0"
              },
              "up": {
                "uv": [
                  9,
                  12.5,
                  8.5,
                  12
                ],
                "texture": "#0"
              },
              "down": {
                "uv": [
                  8.5,
                  12.5,
                  8,
                  13
                ],
                "texture": "#0"
              }
			}
		},
		{
          "from": [
            7.13168,
            0.19477,
            4.5625
          ],
          "to": [
            7.38168,
            0.69477,
            5.5625
          ],
          "rotation": {
            "angle": 0,
            "axis": "y",
            "origin": [
              8.01479,
              0.60116,
              7.99
            ]
          },
			"faces": {
              "north": {
                "uv": [
                  8,
                  12,
                  8.5,
                  12.5
                ],
                "texture": "#0"
              },
              "east": {
                "uv": [
                  7.5,
                  13.5,
                  8,
                  14
                ],
                "texture": "#0"
              },
              "south": {
                "uv": [
                  8.5,
                  12,
                  9,
                  12.5
                ],
                "texture": "#0"
              },
              "west": {
                "uv": [
                  8,
                  12.5,
                  8.5,
                  13
                ],
                "texture": "#0"
              },
              "up": {
                "uv": [
                  9,
                  12.5,
                  8.5,
                  12
                ],
                "texture": "#0"
              },
              "down": {
                "uv": [
                  8.5,
                  12.5,
                  8,
                  13
                ],
                "texture": "#0"
              }
			}
		},
		{
          "from": [
            7.88168,
            0.19477,
            10.46875
          ],
          "to": [
            8.13168,
            0.69477,
            11.46875
          ],
          "rotation": {
            "angle": 0,
            "axis": "y",
            "origin": [
              8.01479,
              0.60116,
              7.99
            ]
          },
			"faces": {
              "north": {
                "uv": [
                  8,
                  12,
                  8.5,
                  12.5
                ],
                "texture": "#0"
              },
              "east": {
                "uv": [
                  7.5,
                  13.5,
                  8,
                  14
                ],
                "texture": "#0"
              },
              "south": {
                "uv": [
                  8.5,
                  12,
                  9,
                  12.5
                ],
                "texture": "#0"
              },
              "west": {
                "uv": [
                  8,
                  12.5,
                  8.5,
                  13
                ],
                "texture": "#0"
              },
              "up": {
                "uv": [
                  9,
                  12.5,
                  8.5,
                  12
                ],
                "texture": "#0"
              },
              "down": {
                "uv": [
                  8.5,
                  12.5,
                  8,
                  13
                ],
                "texture": "#0"
              }
			}
		},
		{
          "from": [
            7.88168,
            0.19477,
            4.5625
          ],
          "to": [
            8.13168,
            0.69477,
            5.5625
          ],
          "rotation": {
            "angle": 0,
            "axis": "y",
            "origin": [
              8.01479,
              0.60116,
              7.99
            ]
          },
			"faces": {
              "north": {
                "uv": [
                  8,
                  12,
                  8.5,
                  12.5
                ],
                "texture": "#0"
              },
              "east": {
                "uv": [
                  7.5,
                  13.5,
                  8,
                  14
                ],
                "texture": "#0"
              },
              "south": {
                "uv": [
                  8.5,
                  12,
                  9,
                  12.5
                ],
                "texture": "#0"
              },
              "west": {
                "uv": [
                  8,
                  12.5,
                  8.5,
                  13
                ],
                "texture": "#0"
              },
              "up": {
                "uv": [
                  9,
                  12.5,
                  8.5,
                  12
                ],
                "texture": "#0"
              },
              "down": {
                "uv": [
                  8.5,
                  12.5,
                  8,
                  13
                ],
                "texture": "#0"
              }
			}
		},
		{
          "from": [
            8.63168,
            0.19477,
            10.46875
          ],
          "to": [
            8.88168,
            0.69477,
            11.46875
          ],
          "rotation": {
            "angle": 0,
            "axis": "y",
            "origin": [
              8.01479,
              0.60116,
              7.99
            ]
          },
			"faces": {
              "north": {
                "uv": [
                  8,
                  12,
                  8.5,
                  12.5
                ],
                "texture": "#0"
              },
              "east": {
                "uv": [
                  7.5,
                  13.5,
                  8,
                  14
                ],
                "texture": "#0"
              },
              "south": {
                "uv": [
                  8.5,
                  12,
                  9,
                  12.5
                ],
                "texture": "#0"
              },
              "west": {
                "uv": [
                  8,
                  12.5,
                  8.5,
                  13
                ],
                "texture": "#0"
              },
              "up": {
                "uv": [
                  9,
                  12.5,
                  8.5,
                  12
                ],
                "texture": "#0"
              },
              "down": {
                "uv": [
                  8.5,
                  12.5,
                  8,
                  13
                ],
                "texture": "#0"
              }
			}
		},
		{
          "from": [
            8.63168,
            0.19477,
            4.5625
          ],
          "to": [
            8.88168,
            0.69477,
            5.5625
          ],
          "rotation": {
            "angle": 0,
            "axis": "y",
            "origin": [
              8.01479,
              0.60116,
              7.99
            ]
          },
			"faces": {
              "north": {
                "uv": [
                  8,
                  12,
                  8.5,
                  12.5
                ],
                "texture": "#0"
              },
              "east": {
                "uv": [
                  7.5,
                  13.5,
                  8,
                  14
                ],
                "texture": "#0"
              },
              "south": {
                "uv": [
                  8.5,
                  12,
                  9,
                  12.5
                ],
                "texture": "#0"
              },
              "west": {
                "uv": [
                  8,
                  12.5,
                  8.5,
                  13
                ],
                "texture": "#0"
              },
              "up": {
                "uv": [
                  9,
                  12.5,
                  8.5,
                  12
                ],
                "texture": "#0"
              },
              "down": {
                "uv": [
                  8.5,
                  12.5,
                  8,
                  13
                ],
                "texture": "#0"
              }
			}
		},
		{
          "from": [
            7.65351,
            0.03125,
            13.11161
          ],
          "to": [
            8.34101,
            0.71875,
            13.61161
          ],
          "rotation": {
            "angle": 45,
            "axis": "y",
            "origin": [
              8.01479,
              0.60116,
              7.99
            ]
          },
			"faces": {
              "north": {
                "uv": [
                  10.5,
                  11,
                  11,
                  11.5
                ],
                "texture": "#0"
              },
              "east": {
                "uv": [
                  8,
                  13,
                  8.5,
                  13.5
                ],
                "texture": "#0"
              },
              "south": {
                "uv": [
                  7.5,
                  12.5,
                  8,
                  13
                ],
                "texture": "#0"
              },
              "west": {
                "uv": [
                  8.5,
                  13,
                  9,
                  13.5
                ],
                "texture": "#0"
              },
              "up": {
                "uv": [
                  8.5,
                  12.5,
                  8,
                  12
                ],
                "texture": "#0"
              },
              "down": {
                "uv": [
                  9,
                  12.5,
                  8.5,
                  13
                ],
                "texture": "#0"
              }
			}
		},
		{
          "from": [
            13.12226,
            0.03125,
            7.64286
          ],
          "to": [
            13.62226,
            0.71875,
            8.33036
          ],
          "rotation": {
            "angle": 45,
            "axis": "y",
            "origin": [
              8.01479,
              0.60116,
              7.99
            ]
          },
			"faces": {
              "north": {
                "uv": [
                  8.5,
                  11.5,
                  9,
                  12
                ],
                "texture": "#0"
              },
              "east": {
                "uv": [
                  8,
                  12.5,
                  8.5,
                  13
                ],
                "texture": "#0"
              },
              "south": {
                "uv": [
                  8,
                  12.5,
                  8.5,
                  13
                ],
                "texture": "#0"
              },
              "west": {
                "uv": [
                  9,
                  12.5,
                  9.5,
                  13
                ],
                "texture": "#0"
              },
              "up": {
                "uv": [
                  7.5,
                  12,
                  7,
                  11.5
                ],
                "texture": "#0"
              },
              "down": {
                "uv": [
                  6,
                  11,
                  5.5,
                  11.5
                ],
                "texture": "#0"
              }
			}
		},
		{
          "from": [
            7.65351,
            0.03125,
            2.36161
          ],
          "to": [
            8.34101,
            0.71875,
            2.86161
          ],
          "rotation": {
            "angle": 45,
            "axis": "y",
            "origin": [
              8.01479,
              0.60116,
              7.99
            ]
          },
			"faces": {
              "north": {
                "uv": [
                  8,
                  13,
                  8.5,
                  13.5
                ],
                "texture": "#0"
              },
              "east": {
                "uv": [
                  7,
                  12.5,
                  7.5,
                  13
                ],
                "texture": "#0"
              },
              "south": {
                "uv": [
                  6.5,
                  12.5,
                  7,
                  13
                ],
                "texture": "#0"
              },
              "west": {
                "uv": [
                  6,
                  11,
                  6.5,
                  11.5
                ],
                "texture": "#0"
              },
              "up": {
                "uv": [
                  7,
                  11.5,
                  6.5,
                  11
                ],
                "texture": "#0"
              },
              "down": {
                "uv": [
                  7.5,
                  11,
                  7,
                  11.5
                ],
                "texture": "#0"
              }
			}
		},
		{
          "from": [
            2.37226,
            0.03125,
            7.64286
          ],
          "to": [
            2.87226,
            0.71875,
            8.33036
          ],
          "rotation": {
            "angle": 45,
            "axis": "y",
            "origin": [
              8.01479,
              0.60116,
              7.99
            ]
          },
			"faces": {
              "north": {
                "uv": [
                  8,
                  12,
                  8.5,
                  12.5
                ],
                "texture": "#0"
              },
              "east": {
                "uv": [
                  8.5,
                  12,
                  9,
                  12.5
                ],
                "texture": "#0"
              },
              "south": {
                "uv": [
                  8.5,
                  13,
                  9,
                  13.5
                ],
                "texture": "#0"
              },
              "west": {
                "uv": [
                  9,
                  12,
                  9.5,
                  12.5
                ],
                "texture": "#0"
              },
              "up": {
                "uv": [
                  11,
                  11.5,
                  10.5,
                  11
                ],
                "texture": "#0"
              },
              "down": {
                "uv": [
                  8.5,
                  12.5,
                  8,
                  13
                ],
                "texture": "#0"
              }
			}
		},
		{
          "from": [
            7.65351,
            0.03125,
            11.73661
          ],
          "to": [
            8.34101,
            0.71875,
            12.73661
          ],
          "rotation": {
            "angle": 45,
            "axis": "y",
            "origin": [
              8.01479,
              0.60116,
              7.99
            ]
          },
			"faces": {
              "north": {
                "uv": [
                  7.5,
                  11,
                  8,
                  11.5
                ],
                "texture": "#0"
              },
              "east": {
                "uv": [
                  8,
                  11,
                  8.5,
                  11.5
                ],
                "texture": "#0"
              },
              "south": {
                "uv": [
                  8.5,
                  11,
                  9,
                  11.5
                ],
                "texture": "#0"
              },
              "west": {
                "uv": [
                  9,
                  11,
                  9.5,
                  11.5
                ],
                "texture": "#0"
              },
              "up": {
                "uv": [
                  10,
                  11.5,
                  9.5,
                  11
                ],
                "texture": "#0"
              },
              "down": {
                "uv": [
                  10.5,
                  11,
                  10,
                  11.5
                ],
                "texture": "#0"
              }
			}
		},
		{
          "from": [
            11.74726,
            0.03125,
            7.64286
          ],
          "to": [
            12.74726,
            0.71875,
            8.33036
          ],
          "rotation": {
            "angle": 45,
            "axis": "y",
            "origin": [
              8.01479,
              0.60116,
              7.99
            ]
          },
			"faces": {
              "north": {
                "uv": [
                  8.5,
                  13,
                  9,
                  13.5
                ],
                "texture": "#0"
              },
              "east": {
                "uv": [
                  7.5,
                  12,
                  8,
                  12.5
                ],
                "texture": "#0"
              },
              "south": {
                "uv": [
                  8.5,
                  13,
                  9,
                  13.5
                ],
                "texture": "#0"
              },
              "west": {
                "uv": [
                  7,
                  12.5,
                  7.5,
                  13
                ],
                "texture": "#0"
              },
              "up": {
                "uv": [
                  8.5,
                  13,
                  8,
                  12.5
                ],
                "texture": "#0"
              },
              "down": {
                "uv": [
                  9,
                  12.5,
                  8.5,
                  13
                ],
                "texture": "#0"
              }
			}
		},
		{
          "from": [
            7.65351,
            0.03125,
            3.23661
          ],
          "to": [
            8.34101,
            0.71875,
            4.23661
          ],
          "rotation": {
            "angle": 45,
            "axis": "y",
            "origin": [
              8.01479,
              0.60116,
              7.99
            ]
          },
			"faces": {
              "north": {
                "uv": [
                  7,
                  12.5,
                  7.5,
                  13
                ],
                "texture": "#0"
              },
              "east": {
                "uv": [
                  8.5,
                  13,
                  9,
                  13.5
                ],
                "texture": "#0"
              },
              "south": {
                "uv": [
                  7,
                  12,
                  7.5,
                  12.5
                ],
                "texture": "#0"
              },
              "west": {
                "uv": [
                  8.5,
                  13,
                  9,
                  13.5
                ],
                "texture": "#0"
              },
              "up": {
                "uv": [
                  8,
                  13,
                  7.5,
                  12.5
                ],
                "texture": "#0"
              },
              "down": {
                "uv": [
                  8,
                  12.5,
                  7.5,
                  13
                ],
                "texture": "#0"
              }
			}
		},
		{
          "from": [
            3.24726,
            0.03125,
            7.64286
          ],
          "to": [
            4.24726,
            0.71875,
            8.33036
          ],
          "rotation": {
            "angle": 45,
            "axis": "y",
            "origin": [
              8.01479,
              0.60116,
              7.99
            ]
          },
			"faces": {
              "north": {
                "uv": [
                  7.5,
                  12.5,
                  8,
                  13
                ],
                "texture": "#0"
              },
              "east": {
                "uv": [
                  7.5,
                  11.5,
                  8,
                  12
                ],
                "texture": "#0"
              },
              "south": {
                "uv": [
                  7.5,
                  12.5,
                  8,
                  13
                ],
                "texture": "#0"
              },
              "west": {
                "uv": [
                  6,
                  11.5,
                  6.5,
                  12
                ],
                "texture": "#0"
              },
              "up": {
                "uv": [
                  9,
                  13.5,
                  8.5,
                  13
                ],
                "texture": "#0"
              },
              "down": {
                "uv": [
                  8,
                  13,
                  7.5,
                  13.5
                ],
                "texture": "#0"
              }
			}
		},
		{
          "from": [
            7.74726,
            0.125,
            2.48661
          ],
          "to": [
            8.24726,
            0.625,
            13.48661
          ],
          "rotation": {
            "angle": 45,
            "axis": "y",
            "origin": [
              8.01479,
              0.60116,
              7.99
            ]
          },
			"faces": {
              "north": {
                "uv": [
                  10.5,
                  7,
                  11,
                  7.5
                ],
                "texture": "#0"
              },
              "east": {
                "uv": [
                  0,
                  11,
                  5.5,
                  11.5
                ],
                "texture": "#0"
              },
              "south": {
                "uv": [
                  0,
                  11,
                  0.5,
                  11.5
                ],
                "texture": "#0"
              },
              "west": {
                "uv": [
                  0,
                  10.5,
                  5.5,
                  11
                ],
                "texture": "#0"
              },
              "up": {
                "uv": [
                  3.5,
                  14.5,
                  3,
                  9
                ],
                "texture": "#0"
              },
              "down": {
                "uv": [
                  3,
                  9.5,
                  2.5,
                  15
                ],
                "texture": "#0"
              }
			}
		},
		{
          "from": [
            2.49726,
            0.125,
            7.73661
          ],
          "to": [
            13.49726,
            0.625,
            8.23661
          ],
          "rotation": {
            "angle": 45,
            "axis": "y",
            "origin": [
              8.01479,
              0.60116,
              7.99
            ]
          },
			"faces": {
              "north": {
                "uv": [
                  0,
                  11,
                  5.5,
                  11.5
                ],
                "texture": "#0"
              },
              "east": {
                "uv": [
                  7.5,
                  11.5,
                  8,
                  12
                ],
                "texture": "#0"
              },
              "south": {
                "uv": [
                  0,
                  9.5,
                  5.5,
                  10
                ],
                "texture": "#0"
              },
              "west": {
                "uv": [
                  8,
                  11.5,
                  8.5,
                  12
                ],
                "texture": "#0"
              },
              "up": {
                "uv": [
                  1,
                  14.5,
                  0.5,
                  9
                ],
                "texture": "#0"
              },
              "down": {
                "uv": [
                  2,
                  9,
                  1.5,
                  14.5
                ],
                "texture": "#0"
              }
			}
		},
		{
          "name": "hexadecagon",
          "from": [
            7.55037,
            0.76062,
            5.61008
          ],
          "to": [
            8.48128,
            0.90687,
            10.29008
          ],
          "rotation": {
            "angle": -45,
            "axis": "y",
            "origin": [
              8.01479,
              0.60116,
              7.99
            ]
          },
			"faces": {
              "north": {
                "uv": [
                  14,
                  12,
                  14.5,
                  12.5
                ],
                "texture": "#0"
              },
              "east": {
                "uv": [
                  6,
                  8,
                  8.5,
                  8.5
                ],
                "texture": "#0"
              },
              "south": {
                "uv": [
                  12.5,
                  12.5,
                  13,
                  13
                ],
                "texture": "#0"
              },
              "west": {
                "uv": [
                  8,
                  0,
                  10.5,
                  0.5
                ],
                "texture": "#0"
              },
              "up": {
                "uv": [
                  14.5,
                  13,
                  14,
                  10.5
                ],
                "texture": "#0"
              },
              "down": {
                "uv": [
                  8.5,
                  0.5,
                  8,
                  3
                ],
                "texture": "#0"
              }
			}
		},
		{
          "name": "hexadecagon",
          "from": [
            7.56557,
            0.76063,
            5.61351
          ],
          "to": [
            8.49648,
            0.90688,
            10.29351
          ],
          "rotation": {
            "angle": -22.5,
            "axis": "y",
            "origin": [
              8.01479,
              0.60116,
              7.99
            ]
          },
			"faces": {
              "north": {
                "uv": [
                  13.5,
                  11,
                  14,
                  11.5
                ],
                "texture": "#0"
              },
              "east": {
                "uv": [
                  8,
                  4,
                  10.5,
                  4.5
                ],
                "texture": "#0"
              },
              "south": {
                "uv": [
                  13,
                  11.5,
                  13.5,
                  12
                ],
                "texture": "#0"
              },
              "west": {
                "uv": [
                  8,
                  4.5,
                  10.5,
                  5
                ],
                "texture": "#0"
              },
              "up": {
                "uv": [
                  13.5,
                  13,
                  13,
                  10.5
                ],
                "texture": "#0"
              },
              "down": {
                "uv": [
                  1,
                  8.5,
                  0.5,
                  11
                ],
                "texture": "#0"
              }
			}
		},
		{
          "name": "hexadecagon",
          "from": [
            7.5783,
            0.76063,
            5.6225
          ],
          "to": [
            8.5092,
            0.90688,
            10.3025
          ],
          "rotation": {
            "angle": 0,
            "axis": "y",
            "origin": [
              8.01479,
              0.60116,
              7.99
            ]
          },
			"faces": {
              "north": {
                "uv": [
                  12.5,
                  11.5,
                  13,
                  12
                ],
                "texture": "#0"
              },
              "east": {
                "uv": [
                  8,
                  5.5,
                  10.5,
                  6
                ],
                "texture": "#0"
              },
              "south": {
                "uv": [
                  11,
                  11.5,
                  11.5,
                  12
                ],
                "texture": "#0"
              },
              "west": {
                "uv": [
                  8,
                  6,
                  10.5,
                  6.5
                ],
                "texture": "#0"
              },
              "up": {
                "uv": [
                  13.5,
                  13.5,
                  13,
                  11
                ],
                "texture": "#0"
              },
              "down": {
                "uv": [
                  2,
                  8.5,
                  1.5,
                  11
                ],
                "texture": "#0"
              }
			}
		},
		{
          "name": "hexadecagon",
          "from": [
            7.58661,
            0.76063,
            5.63568
          ],
          "to": [
            8.51752,
            0.90688,
            10.31568
          ],
          "rotation": {
            "angle": 22.5,
            "axis": "y",
            "origin": [
              8.01479,
              0.60116,
              7.99
            ]
          },
			"faces": {
              "north": {
                "uv": [
                  11.5,
                  11.5,
                  12,
                  12
                ],
                "texture": "#0"
              },
              "east": {
                "uv": [
                  8,
                  6.5,
                  10.5,
                  7
                ],
                "texture": "#0"
              },
              "south": {
                "uv": [
                  13.5,
                  10.5,
                  14,
                  11
                ],
                "texture": "#0"
              },
              "west": {
                "uv": [
                  8,
                  7,
                  10.5,
                  7.5
                ],
                "texture": "#0"
              },
              "up": {
                "uv": [
                  13.5,
                  13,
                  13,
                  10.5
                ],
                "texture": "#0"
              },
              "down": {
                "uv": [
                  3,
                  8.5,
                  2.5,
                  11
                ],
                "texture": "#0"
              }
			}
		},
		{
          "name": "hexadecagon",
          "from": [
            7.58926,
            0.76062,
            5.65103
          ],
          "to": [
            8.52017,
            0.90687,
            10.33103
          ],
          "rotation": {
            "angle": 45,
            "axis": "y",
            "origin": [
              8.01479,
              0.60116,
              7.99
            ]
          },
			"faces": {
              "north": {
                "uv": [
                  13,
                  12.5,
                  13.5,
                  13
                ],
                "texture": "#0"
              },
              "east": {
                "uv": [
                  3,
                  8.5,
                  5.5,
                  9
                ],
                "texture": "#0"
              },
              "south": {
                "uv": [
                  13,
                  11,
                  13.5,
                  11.5
                ],
                "texture": "#0"
              },
              "west": {
                "uv": [
                  5.5,
                  8.5,
                  8,
                  9
                ],
                "texture": "#0"
              },
              "up": {
                "uv": [
                  15,
                  12.5,
                  14.5,
                  10
                ],
                "texture": "#0"
              },
              "down": {
                "uv": [
                  9,
                  8.5,
                  8.5,
                  11
                ],
                "texture": "#0"
              }
			}
		},
		{
          "name": "hexadecagon",
          "from": [
            5.69102,
            0.76063,
            7.48806
          ],
          "to": [
            10.37102,
            0.90688,
            8.41897
          ],
          "rotation": {
            "angle": -22.5,
            "axis": "y",
            "origin": [
              8.01479,
              0.60116,
              7.99
            ]
          },
			"faces": {
              "north": {
                "uv": [
                  8.5,
                  0.5,
                  11,
                  1
                ],
                "texture": "#0"
              },
              "east": {
                "uv": [
                  13.5,
                  13,
                  14,
                  13.5
                ],
                "texture": "#0"
              },
              "south": {
                "uv": [
                  8.5,
                  1,
                  11,
                  1.5
                ],
                "texture": "#0"
              },
              "west": {
                "uv": [
                  12.5,
                  9.5,
                  13,
                  10
                ],
                "texture": "#0"
              },
              "up": {
                "uv": [
                  14.5,
                  11,
                  12,
                  10.5
                ],
                "texture": "#0"
              },
              "down": {
                "uv": [
                  11,
                  2,
                  8.5,
                  2.5
                ],
                "texture": "#0"
              }
			}
		},
		{
          "name": "hexadecagon",
          "from": [
            5.70375,
            0.76063,
            7.49705
          ],
          "to": [
            10.38375,
            0.90688,
            8.42795
          ],
          "rotation": {
            "angle": 0,
            "axis": "y",
            "origin": [
              8.01479,
              0.60116,
              7.99
            ]
          },
			"faces": {
              "north": {
                "uv": [
                  8.5,
                  2.5,
                  11,
                  3
                ],
                "texture": "#0"
              },
              "east": {
                "uv": [
                  11.5,
                  2.5,
                  12,
                  3
                ],
                "texture": "#0"
              },
              "south": {
                "uv": [
                  8.5,
                  5,
                  11,
                  5.5
                ],
                "texture": "#0"
              },
              "west": {
                "uv": [
                  11.5,
                  4,
                  12,
                  4.5
                ],
                "texture": "#0"
              },
              "up": {
                "uv": [
                  11,
                  8.5,
                  8.5,
                  8
                ],
                "texture": "#0"
              },
              "down": {
                "uv": [
                  5.5,
                  9,
                  3,
                  9.5
                ],
                "texture": "#0"
              }
			}
		},
		{
          "name": "hexadecagon",
          "from": [
            5.71207,
            0.76063,
            7.51022
          ],
          "to": [
            10.39207,
            0.90688,
            8.44113
          ],
          "rotation": {
            "angle": 22.5,
            "axis": "y",
            "origin": [
              8.01479,
              0.60116,
              7.99
            ]
          },
			"faces": {
              "north": {
                "uv": [
                  5.5,
                  9,
                  8,
                  9.5
                ],
                "texture": "#0"
              },
              "east": {
                "uv": [
                  13,
                  10,
                  13.5,
                  10.5
                ],
                "texture": "#0"
              },
              "south": {
                "uv": [
                  9,
                  9,
                  11.5,
                  9.5
                ],
                "texture": "#0"
              },
              "west": {
                "uv": [
                  13,
                  10,
                  13.5,
                  10.5
                ],
                "texture": "#0"
              },
              "up": {
                "uv": [
                  15,
                  10,
                  12.5,
                  9.5
                ],
                "texture": "#0"
              },
              "down": {
                "uv": [
                  11.5,
                  8.5,
                  9,
                  9
                ],
                "texture": "#0"
              }
			}
		},
		{
          "name": "octagon",
          "from": [
            6.8706,
            0.12625,
            5.26661
          ],
          "to": [
            9.12392,
            0.65,
            10.70661
          ],
          "rotation": {
            "angle": 45,
            "axis": "y",
            "origin": [
              8.01479,
              0.60116,
              7.99
            ]
          },
			"faces": {
              "north": {
                "uv": [
                  12,
                  4,
                  13,
                  4.5
                ],
                "texture": "#0"
              },
              "east": {
                "uv": [
                  3,
                  9.5,
                  5.5,
                  10
                ],
                "texture": "#0"
              },
              "south": {
                "uv": [
                  12,
                  4.5,
                  13,
                  5
                ],
                "texture": "#0"
              },
              "west": {
                "uv": [
                  11.5,
                  3,
                  12.5,
                  3.5
                ],
                "texture": "#0"
              },
              "up": {
                "uv": [
                  12.5,
                  4.5,
                  11.5,
                  2
                ],
                "texture": "#0"
              },
              "down": {
                "uv": [
                  13,
                  2.5,
                  12,
                  5
                ],
                "texture": "#0"
              }
			}
		},
		{
          "name": "octagon",
          "from": [
            6.87334,
            0.12625,
            5.28
          ],
          "to": [
            9.12666,
            0.65,
            10.72
          ],
          "rotation": {
            "angle": 0,
            "axis": "y",
            "origin": [
              8.01479,
              0.60116,
              7.99
            ]
          },
			"faces": {
              "north": {
                "uv": [
                  11.5,
                  3.5,
                  12.5,
                  4
                ],
                "texture": "#0"
              },
              "east": {
                "uv": [
                  9,
                  9.5,
                  11.5,
                  10
                ],
                "texture": "#0"
              },
              "south": {
                "uv": [
                  12,
                  4.5,
                  13,
                  5
                ],
                "texture": "#0"
              },
              "west": {
                "uv": [
                  11.5,
                  3,
                  12.5,
                  3.5
                ],
                "texture": "#0"
              },
              "up": {
                "uv": [
                  13,
                  5,
                  12,
                  2.5
                ],
                "texture": "#0"
              },
              "down": {
                "uv": [
                  11.5,
                  2,
                  10.5,
                  4.5
                ],
                "texture": "#0"
              }
			}
		},
		{
          "name": "octagon",
          "from": [
            5.27726,
            0.12625,
            6.85995
          ],
          "to": [
            10.71726,
            0.65,
            9.11327
          ],
          "rotation": {
            "angle": 45,
            "axis": "y",
            "origin": [
              8.01479,
              0.60116,
              7.99
            ]
          },
			"faces": {
              "north": {
                "uv": [
                  13.5,
                  12,
                  14.5,
                  12.5
                ],
                "texture": "#0"
              },
              "east": {
                "uv": [
                  12.5,
                  3.5,
                  13.5,
                  4
                ],
                "texture": "#0"
              },
              "south": {
                "uv": [
                  9,
                  10,
                  11.5,
                  10.5
                ],
                "texture": "#0"
              },
              "west": {
                "uv": [
                  11.5,
                  3,
                  12.5,
                  3.5
                ],
                "texture": "#0"
              },
              "up": {
                "uv": [
                  12.5,
                  3.5,
                  10,
                  2.5
                ],
                "texture": "#0"
              },
              "down": {
                "uv": [
                  12,
                  2.5,
                  9.5,
                  3.5
                ],
                "texture": "#0"
              }
			}
		},
		{
          "name": "octagon",
          "from": [
            5.28,
            0.12625,
            6.87334
          ],
          "to": [
            10.72,
            0.65,
            9.12666
          ],
          "rotation": {
            "angle": 0,
            "axis": "y",
            "origin": [
              8.01479,
              0.60116,
              7.99
            ]
          },
			"faces": {
              "north": {
                "uv": [
                  13.5,
                  12,
                  14.5,
                  12.5
                ],
                "texture": "#0"
              },
              "east": {
                "uv": [
                  12,
                  4.5,
                  13,
                  5
                ],
                "texture": "#0"
              },
              "south": {
                "uv": [
                  10,
                  3.5,
                  12.5,
                  4
                ],
                "texture": "#0"
              },
              "west": {
                "uv": [
                  11.5,
                  3,
                  12.5,
                  3.5
                ],
                "texture": "#0"
              },
              "up": {
                "uv": [
                  13.5,
                  4.5,
                  11,
                  3.5
                ],
                "texture": "#0"
              },
              "down": {
                "uv": [
                  13.5,
                  2.5,
                  11,
                  3.5
                ],
                "texture": "#0"
              }
			}
		},
		{
          "name": "octagon",
          "from": [
            5.0925,
            0.62625,
            7.37334
          ],
          "to": [
            10.9075,
            0.99375,
            8.62666
          ],
          "rotation": {
            "angle": 0,
            "axis": "y",
            "origin": [
              8.01479,
              0.60116,
              7.99
            ]
          },
			"faces": {
              "north": {
                "uv": [
                  12.5,
                  4,
                  13.5,
                  4.5
                ],
                "texture": "#0"
              },
              "east": {
                "uv": [
                  12.5,
                  3.5,
                  13,
                  4
                ],
                "texture": "#0"
              },
              "south": {
                "uv": [
                  9.5,
                  3.5,
                  12.5,
                  4
                ],
                "texture": "#0"
              },
              "west": {
                "uv": [
                  11.5,
                  3,
                  12.5,
                  3.5
                ],
                "texture": "#0"
              },
              "up": {
                "uv": [
                  12.5,
                  3.5,
                  9.5,
                  3
                ],
                "texture": "#0"
              },
              "down": {
                "uv": [
                  13.5,
                  3,
                  10.5,
                  3.5
                ],
                "texture": "#0"
              }
			}
		},
		{
          "name": "octagon",
          "from": [
            5.0925,
            0.87625,
            7.87334
          ],
          "to": [
            10.9075,
            1.24375,
            8.12666
          ],
          "rotation": {
            "angle": 0,
            "axis": "y",
            "origin": [
              8.01479,
              0.60116,
              7.99
            ]
          },
			"faces": {
              "north": {
                "uv": [
                  12.5,
                  4,
                  13.5,
                  4.5
                ],
                "texture": "#0"
              },
              "east": {
                "uv": [
                  12.5,
                  3.5,
                  13,
                  4
                ],
                "texture": "#0"
              },
              "south": {
                "uv": [
                  9.5,
                  3.5,
                  12.5,
                  4
                ],
                "texture": "#0"
              },
              "west": {
                "uv": [
                  11.5,
                  3,
                  12.5,
                  3.5
                ],
                "texture": "#0"
              },
              "up": {
                "uv": [
                  12.5,
                  3.5,
                  9.5,
                  3
                ],
                "texture": "#0"
              },
              "down": {
                "uv": [
                  13.5,
                  3,
                  10.5,
                  3.5
                ],
                "texture": "#0"
              }
			}
		},
		{
          "name": "octagon",
          "from": [
            4.8425,
            -0.06125,
            7.62334
          ],
          "to": [
            5.9075,
            1.11875,
            8.37666
          ],
          "rotation": {
            "angle": 0,
            "axis": "y",
            "origin": [
              8.01479,
              0.60116,
              7.99
            ]
          },
			"faces": {
              "north": {
                "uv": [
                  11.5,
                  2.5,
                  12.5,
                  3
                ],
                "texture": "#0"
              },
              "east": {
                "uv": [
                  13,
                  4.5,
                  13.5,
                  5
                ],
                "texture": "#0"
              },
              "south": {
                "uv": [
                  11.5,
                  4,
                  12,
                  4.5
                ],
                "texture": "#0"
              },
              "west": {
                "uv": [
                  11.5,
                  3,
                  12.5,
                  3.5
                ],
                "texture": "#0"
              },
              "up": {
                "uv": [
                  13.5,
                  4,
                  13,
                  3.5
                ],
                "texture": "#0"
              },
              "down": {
                "uv": [
                  12,
                  3.5,
                  11.5,
                  4
                ],
                "texture": "#0"
              }
			}
		},
		{
          "name": "octagon",
          "from": [
            10.0925,
            -0.06125,
            7.62334
          ],
          "to": [
            11.1575,
            1.11875,
            8.37666
          ],
          "rotation": {
            "angle": 0,
            "axis": "y",
            "origin": [
              8.01479,
              0.60116,
              7.99
            ]
          },
			"faces": {
              "north": {
                "uv": [
                  12,
                  3.5,
                  13,
                  4
                ],
                "texture": "#0"
              },
              "east": {
                "uv": [
                  10.5,
                  4,
                  11,
                  4.5
                ],
                "texture": "#0"
              },
              "south": {
                "uv": [
                  10.5,
                  4.5,
                  11,
                  5
                ],
                "texture": "#0"
              },
              "west": {
                "uv": [
                  11.5,
                  3,
                  12.5,
                  3.5
                ],
                "texture": "#0"
              },
              "up": {
                "uv": [
                  11,
                  6.5,
                  10.5,
                  6
                ],
                "texture": "#0"
              },
              "down": {
                "uv": [
                  11,
                  6.5,
                  10.5,
                  7
                ],
                "texture": "#0"
              }
			}
		},
		{
          "from": [
            7.74216,
            0.30525,
            6
          ],
          "to": [
            8.74216,
            1.30525,
            10
          ],
          "rotation": {
            "angle": 45,
            "axis": "z",
            "origin": [
              8.01479,
              0.60116,
              7.99
            ]
          },
			"faces": {
              "north": {
                "uv": [
                  8,
                  7.5,
                  8.5,
                  8
                ],
                "texture": "#0"
              },
              "east": {
                "uv": [
                  7.5,
                  7.5,
                  9.5,
                  8
                ],
                "texture": "#0"
              },
              "south": {
                "uv": [
                  8,
                  7.5,
                  8.5,
                  8
                ],
                "texture": "#0"
              },
              "west": {
                "uv": [
                  3,
                  10.5,
                  5,
                  11
                ],
                "texture": "#0"
              },
              "up": {
                "uv": [
                  8,
                  9,
                  7.5,
                  7
                ],
                "texture": "#0"
              },
              "down": {
                "uv": [
                  6,
                  10.5,
                  5.5,
                  12.5
                ],
                "texture": "#0"
              }
			}
		},
		{
          "from": [
            7.63168,
            0.19477,
            9.5
          ],
          "to": [
            8.88168,
            1.44477,
            9.75
          ],
          "rotation": {
            "angle": 45,
            "axis": "z",
            "origin": [
              8.01479,
              0.60116,
              7.99
            ]
          },
			"faces": {
              "north": {
                "uv": [
                  8,
                  12,
                  8.5,
                  12.5
                ],
                "texture": "#0"
              },
              "east": {
                "uv": [
                  7.5,
                  13.5,
                  8,
                  14
                ],
                "texture": "#0"
              },
              "south": {
                "uv": [
                  8.5,
                  12,
                  9,
                  12.5
                ],
                "texture": "#0"
              },
              "west": {
                "uv": [
                  11.5,
                  8,
                  12,
                  8.5
                ],
                "texture": "#0"
              },
              "up": {
                "uv": [
                  9,
                  12.5,
                  8.5,
                  12
                ],
                "texture": "#0"
              },
              "down": {
                "uv": [
                  12,
                  9,
                  11.5,
                  9.5
                ],
                "texture": "#0"
              }
			}
		},
		{
          "from": [
            7.63168,
            0.19477,
            6.25
          ],
          "to": [
            8.88168,
            1.44477,
            6.5
          ],
          "rotation": {
            "angle": 45,
            "axis": "z",
            "origin": [
              8.01479,
              0.60116,
              7.99
            ]
          },
			"faces": {
              "north": {
                "uv": [
                  8.5,
                  12.5,
                  9,
                  13
                ],
                "texture": "#0"
              },
              "east": {
                "uv": [
                  8.5,
                  12.5,
                  9,
                  13
                ],
                "texture": "#0"
              },
              "south": {
                "uv": [
                  8,
                  12.5,
                  8.5,
                  13
                ],
                "texture": "#0"
              },
              "west": {
                "uv": [
                  11.5,
                  11,
                  12,
                  11.5
                ],
                "texture": "#0"
              },
              "up": {
                "uv": [
                  8,
                  13.5,
                  7.5,
                  13
                ],
                "texture": "#0"
              },
              "down": {
                "uv": [
                  1,
                  12,
                  0.5,
                  12.5
                ],
                "texture": "#0"
              }
			}
		}
	],
	"display": {
		"thirdperson_righthand": {
          "rotation": [
            40,
            0,
            0
          ],
          "translation": [
            0,
            5.5,
            2
          ],
			"scale": [0.75, 0.75, 0.75]
		},
		"thirdperson_lefthand": {
          "rotation": [
            40,
            0,
            0
          ],
          "translation": [
            0,
            5.5,
            2
          ],
			"scale": [0.75, 0.75, 0.75]
		},
		"firstperson_righthand": {
          "rotation": [
            72,
            -12,
            36
          ],
          "translation": [
            0,
            1.5,
            0
          ]
		},
		"firstperson_lefthand": {
          "rotation": [
            72,
            -12,
            36
          ],
          "translation": [
            0,
            1.5,
            0
          ]
		},
		"ground": {
          "translation": [
            0,
            4.25,
            0
          ]
		},
		"gui": {
          "rotation": [
            73,
            -33,
            33
          ],
          "translation": [
            -5.25,
            6.75,
            4
          ],
          "scale": [
            1.5,
            1.5,
            1.5
          ]
		},
		"head": {
          "translation": [
            0,
            14.25,
            -0.25
          ]
		},
		"fixed": {
          "rotation": [
            -90,
            0,
            0
          ],
          "translation": [
            0,
            0,
            -11.75
          ],
          "scale": [
            1.5,
            1.5,
            1.5
          ]
        }
    },
  "groups": [
    {
      "name": "group",
      "origin": [
        8,
        8,
        8
      ],
      "children": [
        0
      ]
    },
    {
      "name": "group",
      "origin": [
        8,
        8,
        8
      ],
      "children": [
        1,
        2,
        3,
        4,
        5,
        6,
        7,
        8,
        9,
        10,
        11,
        12,
        13,
        14,
        15,
        16
      ]
    },
    {
      "name": "hexadecagon",
      "origin": [
        8,
        8,
        8
      ],
      "children": [
        17,
        18,
        19,
        20,
        21,
        22,
        23,
        24
      ]
    },
    {
      "name": "octagon",
      "origin": [
        8,
        8,
        8
      ],
      "children": [
        25,
        26,
        27,
        28,
        29,
        30,
        31,
        32
      ]
    },
    {
      "name": "group",
      "origin": [
        8,
        8,
        8
      ],
      "children": [
        33,
        34,
        35
      ]
    }
  ]
}