{
  "type": "minecraft:crafting_shapeless",
  "ingredients": [
  {
  "item": "minecraft:book"
  },
  {
   "item": "minecraft:book"
  },
   {
   "item": "minecraft:book"
  }
  ],
  "result": {
    "item": "tardis:clutter_books"
  }
}