{
	"type":"minecraft:crafting_shaped",
	"pattern":[
		"ITI",
		"CLS",
		"ODO"
	],
	"key":{
		"I":{
			"item":"minecraft:iron_ingot"
		},
		"T":{
			"item":"minecraft:ghast_tear"
		},
		"C":{
			"item":"tardis:circuits"
		},
		"L":{
			"item":"tardis:landing_pad"
		},
		"S":{
			"item":"tardis:shield_generator"
		},
		"O":{
			"item":"minecraft:obsidian"
		},
		"D":{
			"item":"tardis:dematerialisation_circuit"
		}
	},
	"result":{
		"item":"tardis:transduction_barrier"
	}
}