{
  "type": "minecraft:crafting_shaped",
  "pattern":[
  "IRI",
  "DCB",
  "IRI"
  ],
  "key": {
  "B":
  {
   "item": "minecraft:blaze_rod"
  },
  "C":
  {
  "item": "tardis:circuits"
  },
  "D":
  {
  "item": "tardis:dematerialisation_circuit"
  },
  "I":
  {
  "item":"minecraft:iron_ingot"
  },
  "R":
  {
  "item":"minecraft:redstone"
  }
  },
  "result": {
    "item": "tardis:vm_module"
  }
}