{
	"type":"minecraft:crafting_shaped",
	"pattern":[
		"CGC",
		"CXC",
		"CRC"
	],
	"key":{
		"C":{
			"item":"tardis:circuits"
		},
		"G":{
			"item":"minecraft:glass"
		},
		"X":{
			"item":"tardis:xion_crystal"
		},
		"R":{
			"item":"minecraft:redstone_block"
		}
	},
	"result":{
		"item":"tardis:waypoint_bank"
	}
}