{
	"lines":[
	"ARS Usage"
		,""
		," To generate new rooms, an ARS Structure Start block is placed two blocks above the floor of the timeship"
		," Next, the user selects a room type from the ARS Tablet GUI."
	]
}