{
	"lines":[
	"Waypoint Screen"
	,""
	," Shows all waypoints stored in every Waypoint Bank blocks placed anywhere inside the interior."
	," You can increase waypoint storage by 5 waypoints for each Waypoint Bank placed inside the interior."
	]
}
