{
	"lines":[
	"Changing the console room will delete all items within containers inside the current room, along with armor stands and item frames."
	," All items are saved to the Reclamation Unit."
	]
}