{
	"credit": "Made with Blockbench",
	"texture_size": [
		32,
		32
	],
	"textures": {
		"4": "tardis:item/sonics/mk2_emitter"
	},
	"elements": [
		{
			"name": "hexadecagon",
			"from": [
				5.05881,
				1.18835,
				-3.8971
			],
			"to": [
				5.44582,
				1.9054,
				-3.7515
			],
			"rotation": {
				"angle": -45,
				"axis": "y",
				"origin": [
					7.99059,
					8,
					-0.18603
				]
			},
			"faces": {
				"north": {
					"uv": [
						4,
						5.5,
						4.5,
						6
					],
					"texture": "#4"
				},
				"east": {
					"uv": [
						4.5,
						5.5,
						5,
						6
					],
					"texture": "#4"
				},
				"south": {
					"uv": [
						5,
						5.5,
						5.5,
						6
					],
					"texture": "#4"
				},
				"west": {
					"uv": [
						5.5,
						5.5,
						6,
						6
					],
					"texture": "#4"
				},
				"up": {
					"uv": [
						6,
						3,
						5.5,
						2.5
					],
					"texture": "#4"
				},
				"down": {
					"uv": [
						6,
						3,
						5.5,
						3.5
					],
					"texture": "#4"
				}
			}
		},
		{
			"name": "hexadecagon",
			"from": [
				5.05881,
				1.18835,
				-2.0821
			],
			"to": [
				5.44582,
				1.9054,
				-1.9515
			],
			"rotation": {
				"angle": -45,
				"axis": "y",
				"origin": [
					7.99059,
					8,
					-0.18603
				]
			},
			"faces": {
				"north": {
					"uv": [
						5.5,
						3.5,
						6,
						4
					],
					"texture": "#4"
				},
				"east": {
					"uv": [
						5.5,
						4,
						6,
						4.5
					],
					"texture": "#4"
				},
				"south": {
					"uv": [
						5.5,
						4.5,
						6,
						5
					],
					"texture": "#4"
				},
				"west": {
					"uv": [
						5.5,
						5,
						6,
						5.5
					],
					"texture": "#4"
				},
				"up": {
					"uv": [
						0.5,
						6.5,
						0,
						6
					],
					"texture": "#4"
				},
				"down": {
					"uv": [
						1,
						6,
						0.5,
						6.5
					],
					"texture": "#4"
				}
			}
		},
		{
			"name": "hexadecagon",
			"from": [
				6.31514,
				1.18835,
				-4.73655
			],
			"to": [
				6.70215,
				1.9054,
				-4.59095
			],
			"rotation": {
				"angle": -22.5,
				"axis": "y",
				"origin": [
					7.99059,
					8,
					-0.18603
				]
			},
			"faces": {
				"north": {
					"uv": [
						1,
						6,
						1.5,
						6.5
					],
					"texture": "#4"
				},
				"east": {
					"uv": [
						1.5,
						6,
						2,
						6.5
					],
					"texture": "#4"
				},
				"south": {
					"uv": [
						2,
						6,
						2.5,
						6.5
					],
					"texture": "#4"
				},
				"west": {
					"uv": [
						2.5,
						6,
						3,
						6.5
					],
					"texture": "#4"
				},
				"up": {
					"uv": [
						3.5,
						6.5,
						3,
						6
					],
					"texture": "#4"
				},
				"down": {
					"uv": [
						4,
						6,
						3.5,
						6.5
					],
					"texture": "#4"
				}
			}
		},
		{
			"name": "hexadecagon",
			"from": [
				6.31514,
				1.18835,
				-2.92595
			],
			"to": [
				6.70215,
				1.9054,
				-2.79095
			],
			"rotation": {
				"angle": -22.5,
				"axis": "y",
				"origin": [
					7.99059,
					8,
					-0.18603
				]
			},
			"faces": {
				"north": {
					"uv": [
						4,
						6,
						4.5,
						6.5
					],
					"texture": "#4"
				},
				"east": {
					"uv": [
						4.5,
						6,
						5,
						6.5
					],
					"texture": "#4"
				},
				"south": {
					"uv": [
						5,
						6,
						5.5,
						6.5
					],
					"texture": "#4"
				},
				"west": {
					"uv": [
						5.5,
						6,
						6,
						6.5
					],
					"texture": "#4"
				},
				"up": {
					"uv": [
						6.5,
						6.5,
						6,
						6
					],
					"texture": "#4"
				},
				"down": {
					"uv": [
						6.5,
						0,
						6,
						0.5
					],
					"texture": "#4"
				}
			}
		},
		{
			"name": "hexadecagon",
			"from": [
				7.79708,
				1.18835,
				-5.03133
			],
			"to": [
				8.18409,
				1.9054,
				-4.88573
			],
			"rotation": {
				"angle": 0,
				"axis": "y",
				"origin": [
					7.99059,
					8,
					-0.18603
				]
			},
			"faces": {
				"north": {
					"uv": [
						6,
						0.5,
						6.5,
						1
					],
					"texture": "#4"
				},
				"east": {
					"uv": [
						6,
						1,
						6.5,
						1.5
					],
					"texture": "#4"
				},
				"south": {
					"uv": [
						6,
						1.5,
						6.5,
						2
					],
					"texture": "#4"
				},
				"west": {
					"uv": [
						6,
						2,
						6.5,
						2.5
					],
					"texture": "#4"
				},
				"up": {
					"uv": [
						6.5,
						3,
						6,
						2.5
					],
					"texture": "#4"
				},
				"down": {
					"uv": [
						6.5,
						3,
						6,
						3.5
					],
					"texture": "#4"
				}
			}
		},
		{
			"name": "hexadecagon",
			"from": [
				7.79708,
				1.18835,
				-3.23133
			],
			"to": [
				8.18409,
				1.9054,
				-3.08573
			],
			"rotation": {
				"angle": 0,
				"axis": "y",
				"origin": [
					7.99059,
					8,
					-0.18603
				]
			},
			"faces": {
				"north": {
					"uv": [
						6,
						3.5,
						6.5,
						4
					],
					"texture": "#4"
				},
				"east": {
					"uv": [
						6,
						4,
						6.5,
						4.5
					],
					"texture": "#4"
				},
				"south": {
					"uv": [
						6,
						4.5,
						6.5,
						5
					],
					"texture": "#4"
				},
				"west": {
					"uv": [
						6,
						5,
						6.5,
						5.5
					],
					"texture": "#4"
				},
				"up": {
					"uv": [
						6.5,
						6,
						6,
						5.5
					],
					"texture": "#4"
				},
				"down": {
					"uv": [
						0.5,
						6.5,
						0,
						7
					],
					"texture": "#4"
				}
			}
		},
		{
			"name": "hexadecagon",
			"from": [
				7.70333,
				0.68835,
				-4.29383
			],
			"to": [
				8.30909,
				2.1554,
				-3.71073
			],
			"rotation": {
				"angle": 0,
				"axis": "y",
				"origin": [
					7.99059,
					8,
					-0.18603
				]
			},
			"faces": {
				"north": {
					"uv": [
						5,
						2.5,
						5.5,
						3
					],
					"texture": "#4"
				},
				"east": {
					"uv": [
						5,
						3,
						5.5,
						3.5
					],
					"texture": "#4"
				},
				"south": {
					"uv": [
						5,
						3.5,
						5.5,
						4
					],
					"texture": "#4"
				},
				"west": {
					"uv": [
						1,
						5.5,
						1.5,
						6
					],
					"texture": "#4"
				},
				"up": {
					"uv": [
						3,
						6,
						2.5,
						5.5
					],
					"texture": "#4"
				},
				"down": {
					"uv": [
						4,
						5.5,
						3.5,
						6
					],
					"texture": "#4"
				}
			}
		},
		{
			"name": "hexadecagon",
			"from": [
				9.27903,
				1.18835,
				-4.73655
			],
			"to": [
				9.66603,
				1.9054,
				-4.59095
			],
			"rotation": {
				"angle": 22.5,
				"axis": "y",
				"origin": [
					7.99059,
					8,
					-0.18603
				]
			},
			"faces": {
				"north": {
					"uv": [
						0.5,
						6.5,
						1,
						7
					],
					"texture": "#4"
				},
				"east": {
					"uv": [
						1,
						6.5,
						1.5,
						7
					],
					"texture": "#4"
				},
				"south": {
					"uv": [
						1.5,
						6.5,
						2,
						7
					],
					"texture": "#4"
				},
				"west": {
					"uv": [
						2,
						6.5,
						2.5,
						7
					],
					"texture": "#4"
				},
				"up": {
					"uv": [
						3,
						7,
						2.5,
						6.5
					],
					"texture": "#4"
				},
				"down": {
					"uv": [
						3.5,
						6.5,
						3,
						7
					],
					"texture": "#4"
				}
			}
		},
		{
			"name": "hexadecagon",
			"from": [
				9.27903,
				1.18835,
				-2.93655
			],
			"to": [
				9.66603,
				1.9054,
				-2.79095
			],
			"rotation": {
				"angle": 22.5,
				"axis": "y",
				"origin": [
					7.99059,
					8,
					-0.18603
				]
			},
			"faces": {
				"north": {
					"uv": [
						3.5,
						6.5,
						4,
						7
					],
					"texture": "#4"
				},
				"east": {
					"uv": [
						4,
						6.5,
						4.5,
						7
					],
					"texture": "#4"
				},
				"south": {
					"uv": [
						4.5,
						6.5,
						5,
						7
					],
					"texture": "#4"
				},
				"west": {
					"uv": [
						5,
						6.5,
						5.5,
						7
					],
					"texture": "#4"
				},
				"up": {
					"uv": [
						6,
						7,
						5.5,
						6.5
					],
					"texture": "#4"
				},
				"down": {
					"uv": [
						6.5,
						6.5,
						6,
						7
					],
					"texture": "#4"
				}
			}
		},
		{
			"name": "hexadecagon",
			"from": [
				10.53536,
				1.18835,
				-3.8971
			],
			"to": [
				10.92236,
				1.9054,
				-3.7515
			],
			"rotation": {
				"angle": 45,
				"axis": "y",
				"origin": [
					7.99059,
					8,
					-0.18603
				]
			},
			"faces": {
				"north": {
					"uv": [
						6.5,
						6.5,
						7,
						7
					],
					"texture": "#4"
				},
				"east": {
					"uv": [
						6.5,
						0,
						7,
						0.5
					],
					"texture": "#4"
				},
				"south": {
					"uv": [
						6.5,
						0.5,
						7,
						1
					],
					"texture": "#4"
				},
				"west": {
					"uv": [
						6.5,
						1,
						7,
						1.5
					],
					"texture": "#4"
				},
				"up": {
					"uv": [
						7,
						2,
						6.5,
						1.5
					],
					"texture": "#4"
				},
				"down": {
					"uv": [
						7,
						2,
						6.5,
						2.5
					],
					"texture": "#4"
				}
			}
		},
		{
			"name": "hexadecagon",
			"from": [
				10.53536,
				1.18835,
				-2.0971
			],
			"to": [
				10.92236,
				1.9054,
				-1.9515
			],
			"rotation": {
				"angle": 45,
				"axis": "y",
				"origin": [
					7.99059,
					8,
					-0.18603
				]
			},
			"faces": {
				"north": {
					"uv": [
						6.5,
						2.5,
						7,
						3
					],
					"texture": "#4"
				},
				"east": {
					"uv": [
						6.5,
						3,
						7,
						3.5
					],
					"texture": "#4"
				},
				"south": {
					"uv": [
						6.5,
						3.5,
						7,
						4
					],
					"texture": "#4"
				},
				"west": {
					"uv": [
						6.5,
						4,
						7,
						4.5
					],
					"texture": "#4"
				},
				"up": {
					"uv": [
						7,
						5,
						6.5,
						4.5
					],
					"texture": "#4"
				},
				"down": {
					"uv": [
						7,
						5,
						6.5,
						5.5
					],
					"texture": "#4"
				}
			}
		},
		{
			"name": "hexadecagon",
			"from": [
				5.53584,
				1.18835,
				-3.95725
			],
			"to": [
				5.67144,
				1.9054,
				-3.57025
			],
			"rotation": {
				"angle": -22.5,
				"axis": "y",
				"origin": [
					7.99059,
					8,
					-0.18603
				]
			},
			"faces": {
				"north": {
					"uv": [
						6.5,
						5.5,
						7,
						6
					],
					"texture": "#4"
				},
				"east": {
					"uv": [
						6.5,
						6,
						7,
						6.5
					],
					"texture": "#4"
				},
				"south": {
					"uv": [
						0,
						7,
						0.5,
						7.5
					],
					"texture": "#4"
				},
				"west": {
					"uv": [
						0.5,
						7,
						1,
						7.5
					],
					"texture": "#4"
				},
				"up": {
					"uv": [
						1.5,
						7.5,
						1,
						7
					],
					"texture": "#4"
				},
				"down": {
					"uv": [
						2,
						7,
						1.5,
						7.5
					],
					"texture": "#4"
				}
			}
		},
		{
			"name": "hexadecagon",
			"from": [
				7.33584,
				1.18835,
				-3.95725
			],
			"to": [
				7.48144,
				1.9054,
				-3.57025
			],
			"rotation": {
				"angle": -22.5,
				"axis": "y",
				"origin": [
					7.99059,
					8,
					-0.18603
				]
			},
			"faces": {
				"north": {
					"uv": [
						2,
						7,
						2.5,
						7.5
					],
					"texture": "#4"
				},
				"east": {
					"uv": [
						2.5,
						7,
						3,
						7.5
					],
					"texture": "#4"
				},
				"south": {
					"uv": [
						3,
						7,
						3.5,
						7.5
					],
					"texture": "#4"
				},
				"west": {
					"uv": [
						3.5,
						7,
						4,
						7.5
					],
					"texture": "#4"
				},
				"up": {
					"uv": [
						4.5,
						7.5,
						4,
						7
					],
					"texture": "#4"
				},
				"down": {
					"uv": [
						5,
						7,
						4.5,
						7.5
					],
					"texture": "#4"
				}
			}
		},
		{
			"name": "hexadecagon",
			"from": [
				8.81779,
				1.18835,
				-4.25203
			],
			"to": [
				8.96339,
				1.9054,
				-3.86502
			],
			"rotation": {
				"angle": 0,
				"axis": "y",
				"origin": [
					7.99059,
					8,
					-0.18603
				]
			},
			"faces": {
				"north": {
					"uv": [
						5,
						7,
						5.5,
						7.5
					],
					"texture": "#4"
				},
				"east": {
					"uv": [
						5.5,
						7,
						6,
						7.5
					],
					"texture": "#4"
				},
				"south": {
					"uv": [
						6,
						7,
						6.5,
						7.5
					],
					"texture": "#4"
				},
				"west": {
					"uv": [
						6.5,
						7,
						7,
						7.5
					],
					"texture": "#4"
				},
				"up": {
					"uv": [
						7.5,
						7.5,
						7,
						7
					],
					"texture": "#4"
				},
				"down": {
					"uv": [
						7.5,
						0,
						7,
						0.5
					],
					"texture": "#4"
				}
			}
		},
		{
			"name": "hexadecagon",
			"from": [
				7.01779,
				1.18835,
				-4.25203
			],
			"to": [
				7.14839,
				1.9054,
				-3.86502
			],
			"rotation": {
				"angle": 0,
				"axis": "y",
				"origin": [
					7.99059,
					8,
					-0.18603
				]
			},
			"faces": {
				"north": {
					"uv": [
						7,
						0.5,
						7.5,
						1
					],
					"texture": "#4"
				},
				"east": {
					"uv": [
						7,
						1,
						7.5,
						1.5
					],
					"texture": "#4"
				},
				"south": {
					"uv": [
						7,
						1.5,
						7.5,
						2
					],
					"texture": "#4"
				},
				"west": {
					"uv": [
						7,
						2,
						7.5,
						2.5
					],
					"texture": "#4"
				},
				"up": {
					"uv": [
						7.5,
						3,
						7,
						2.5
					],
					"texture": "#4"
				},
				"down": {
					"uv": [
						7.5,
						3,
						7,
						3.5
					],
					"texture": "#4"
				}
			}
		},
		{
			"name": "hexadecagon",
			"from": [
				10.29973,
				1.18835,
				-3.95725
			],
			"to": [
				10.44533,
				1.9054,
				-3.57025
			],
			"rotation": {
				"angle": 22.5,
				"axis": "y",
				"origin": [
					7.99059,
					8,
					-0.18603
				]
			},
			"faces": {
				"north": {
					"uv": [
						7,
						3.5,
						7.5,
						4
					],
					"texture": "#4"
				},
				"east": {
					"uv": [
						7,
						4,
						7.5,
						4.5
					],
					"texture": "#4"
				},
				"south": {
					"uv": [
						7,
						4.5,
						7.5,
						5
					],
					"texture": "#4"
				},
				"west": {
					"uv": [
						7,
						5,
						7.5,
						5.5
					],
					"texture": "#4"
				},
				"up": {
					"uv": [
						7.5,
						6,
						7,
						5.5
					],
					"texture": "#4"
				},
				"down": {
					"uv": [
						7.5,
						6,
						7,
						6.5
					],
					"texture": "#4"
				}
			}
		},
		{
			"name": "hexadecagon",
			"from": [
				8.49973,
				1.18835,
				-3.95725
			],
			"to": [
				8.62533,
				1.9054,
				-3.57025
			],
			"rotation": {
				"angle": 22.5,
				"axis": "y",
				"origin": [
					7.99059,
					8,
					-0.18603
				]
			},
			"faces": {
				"north": {
					"uv": [
						7,
						6.5,
						7.5,
						7
					],
					"texture": "#4"
				},
				"east": {
					"uv": [
						0,
						7.5,
						0.5,
						8
					],
					"texture": "#4"
				},
				"south": {
					"uv": [
						0.5,
						7.5,
						1,
						8
					],
					"texture": "#4"
				},
				"west": {
					"uv": [
						1,
						7.5,
						1.5,
						8
					],
					"texture": "#4"
				},
				"up": {
					"uv": [
						2,
						8,
						1.5,
						7.5
					],
					"texture": "#4"
				},
				"down": {
					"uv": [
						2.5,
						7.5,
						2,
						8
					],
					"texture": "#4"
				}
			}
		},
		{
			"name": "octagon",
			"from": [
				6.42254,
				1.90092,
				-3.97312
			],
			"to": [
				6.63289,
				2.40876,
				-2.33188
			],
			"rotation": {
				"angle": 45,
				"axis": "z",
				"origin": [
					8,
					3.62712,
					1.44588
				]
			},
			"faces": {
				"north": {
					"uv": [
						2.5,
						7.5,
						3,
						8
					],
					"texture": "#4"
				},
				"east": {
					"uv": [
						2,
						1,
						3,
						1.5
					],
					"texture": "#4"
				},
				"south": {
					"uv": [
						3,
						7.5,
						3.5,
						8
					],
					"texture": "#4"
				},
				"west": {
					"uv": [
						2,
						1.5,
						3,
						2
					],
					"texture": "#4"
				},
				"up": {
					"uv": [
						0.5,
						4,
						0,
						3
					],
					"texture": "#4"
				},
				"down": {
					"uv": [
						1,
						3,
						0.5,
						4
					],
					"texture": "#4"
				}
			}
		},
		{
			"name": "octagon",
			"from": [
				7.89482,
				1.29108,
				-3.97312
			],
			"to": [
				8.10518,
				1.79892,
				-2.33188
			],
			"rotation": {
				"angle": 0,
				"axis": "y",
				"origin": [
					8,
					3.62712,
					1.44588
				]
			},
			"faces": {
				"north": {
					"uv": [
						3.5,
						7.5,
						4,
						8
					],
					"texture": "#4"
				},
				"east": {
					"uv": [
						1,
						3,
						2,
						3.5
					],
					"texture": "#4"
				},
				"south": {
					"uv": [
						4,
						7.5,
						4.5,
						8
					],
					"texture": "#4"
				},
				"west": {
					"uv": [
						2,
						3,
						3,
						3.5
					],
					"texture": "#4"
				},
				"up": {
					"uv": [
						3.5,
						4,
						3,
						3
					],
					"texture": "#4"
				},
				"down": {
					"uv": [
						3.5,
						0,
						3,
						1
					],
					"texture": "#4"
				}
			}
		},
		{
			"name": "octagon",
			"from": [
				6.2738,
				2.04966,
				-3.97312
			],
			"to": [
				6.78163,
				2.26002,
				-2.33188
			],
			"rotation": {
				"angle": 45,
				"axis": "z",
				"origin": [
					8,
					3.62712,
					1.44588
				]
			},
			"faces": {
				"north": {
					"uv": [
						4.5,
						7.5,
						5,
						8
					],
					"texture": "#4"
				},
				"east": {
					"uv": [
						3,
						1,
						4,
						1.5
					],
					"texture": "#4"
				},
				"south": {
					"uv": [
						5,
						7.5,
						5.5,
						8
					],
					"texture": "#4"
				},
				"west": {
					"uv": [
						3,
						1.5,
						4,
						2
					],
					"texture": "#4"
				},
				"up": {
					"uv": [
						3.5,
						3,
						3,
						2
					],
					"texture": "#4"
				},
				"down": {
					"uv": [
						1.5,
						3.5,
						1,
						4.5
					],
					"texture": "#4"
				}
			}
		},
		{
			"name": "octagon",
			"from": [
				7.74608,
				1.43982,
				-3.97312
			],
			"to": [
				8.25392,
				1.65018,
				-2.33188
			],
			"rotation": {
				"angle": 0,
				"axis": "y",
				"origin": [
					8,
					3.62712,
					1.44588
				]
			},
			"faces": {
				"north": {
					"uv": [
						5.5,
						7.5,
						6,
						8
					],
					"texture": "#4"
				},
				"east": {
					"uv": [
						1.5,
						3.5,
						2.5,
						4
					],
					"texture": "#4"
				},
				"south": {
					"uv": [
						6,
						7.5,
						6.5,
						8
					],
					"texture": "#4"
				},
				"west": {
					"uv": [
						3.5,
						3.5,
						4.5,
						4
					],
					"texture": "#4"
				},
				"up": {
					"uv": [
						3,
						4.5,
						2.5,
						3.5
					],
					"texture": "#4"
				},
				"down": {
					"uv": [
						4,
						0,
						3.5,
						1
					],
					"texture": "#4"
				}
			}
		},
		{
			"name": "octagon",
			"from": [
				4.47888,
				2.33947,
				-2.75216
			],
			"to": [
				4.94842,
				3.47303,
				-1.74034
			],
			"rotation": {
				"angle": 45,
				"axis": "z",
				"origin": [
					8,
					6.1926,
					5.18355
				]
			},
			"faces": {
				"north": {
					"uv": [
						6.5,
						7.5,
						7,
						8
					],
					"texture": "#4"
				},
				"east": {
					"uv": [
						7,
						7.5,
						7.5,
						8
					],
					"texture": "#4"
				},
				"south": {
					"uv": [
						7.5,
						7.5,
						8,
						8
					],
					"texture": "#4"
				},
				"west": {
					"uv": [
						7.5,
						0,
						8,
						0.5
					],
					"texture": "#4"
				},
				"up": {
					"uv": [
						8,
						1,
						7.5,
						0.5
					],
					"texture": "#4"
				},
				"down": {
					"uv": [
						8,
						1,
						7.5,
						1.5
					],
					"texture": "#4"
				}
			}
		},
		{
			"name": "octagon",
			"from": [
				7.76523,
				0.97822,
				-2.75216
			],
			"to": [
				8.23477,
				2.11178,
				-1.74034
			],
			"rotation": {
				"angle": 0,
				"axis": "y",
				"origin": [
					8,
					6.1926,
					5.18355
				]
			},
			"faces": {
				"north": {
					"uv": [
						7.5,
						1.5,
						8,
						2
					],
					"texture": "#4"
				},
				"east": {
					"uv": [
						7.5,
						2,
						8,
						2.5
					],
					"texture": "#4"
				},
				"south": {
					"uv": [
						7.5,
						2.5,
						8,
						3
					],
					"texture": "#4"
				},
				"west": {
					"uv": [
						7.5,
						3,
						8,
						3.5
					],
					"texture": "#4"
				},
				"up": {
					"uv": [
						8,
						4,
						7.5,
						3.5
					],
					"texture": "#4"
				},
				"down": {
					"uv": [
						8,
						4,
						7.5,
						4.5
					],
					"texture": "#4"
				}
			}
		},
		{
			"name": "octagon",
			"from": [
				4.14687,
				2.67148,
				-2.75216
			],
			"to": [
				5.28043,
				3.14102,
				-1.74034
			],
			"rotation": {
				"angle": 45,
				"axis": "z",
				"origin": [
					8,
					6.1926,
					5.18355
				]
			},
			"faces": {
				"north": {
					"uv": [
						7.5,
						4.5,
						8,
						5
					],
					"texture": "#4"
				},
				"east": {
					"uv": [
						7.5,
						5,
						8,
						5.5
					],
					"texture": "#4"
				},
				"south": {
					"uv": [
						7.5,
						5.5,
						8,
						6
					],
					"texture": "#4"
				},
				"west": {
					"uv": [
						7.5,
						6,
						8,
						6.5
					],
					"texture": "#4"
				},
				"up": {
					"uv": [
						8,
						7,
						7.5,
						6.5
					],
					"texture": "#4"
				},
				"down": {
					"uv": [
						8,
						7,
						7.5,
						7.5
					],
					"texture": "#4"
				}
			}
		},
		{
			"name": "octagon",
			"from": [
				7.43322,
				1.31023,
				-2.75216
			],
			"to": [
				8.56678,
				1.77977,
				-1.74034
			],
			"rotation": {
				"angle": 0,
				"axis": "y",
				"origin": [
					8,
					6.1926,
					5.18355
				]
			},
			"faces": {
				"north": {
					"uv": [
						0,
						8,
						0.5,
						8.5
					],
					"texture": "#4"
				},
				"east": {
					"uv": [
						0.5,
						8,
						1,
						8.5
					],
					"texture": "#4"
				},
				"south": {
					"uv": [
						1,
						8,
						1.5,
						8.5
					],
					"texture": "#4"
				},
				"west": {
					"uv": [
						1.5,
						8,
						2,
						8.5
					],
					"texture": "#4"
				},
				"up": {
					"uv": [
						2.5,
						8.5,
						2,
						8
					],
					"texture": "#4"
				},
				"down": {
					"uv": [
						3,
						8,
						2.5,
						8.5
					],
					"texture": "#4"
				}
			}
		},
		{
			"name": "octagon",
			"from": [
				3.00001,
				2.67314,
				-1.96465
			],
			"to": [
				3.66676,
				4.28281,
				-0.27785
			],
			"rotation": {
				"angle": 45,
				"axis": "z",
				"origin": [
					8,
					8.14459,
					7.77907
				]
			},
			"faces": {
				"north": {
					"uv": [
						3.5,
						2,
						4,
						3
					],
					"texture": "#4"
				},
				"east": {
					"uv": [
						0,
						0,
						1,
						1
					],
					"texture": "#4"
				},
				"south": {
					"uv": [
						0,
						4,
						0.5,
						5
					],
					"texture": "#4"
				},
				"west": {
					"uv": [
						0,
						1,
						1,
						2
					],
					"texture": "#4"
				},
				"up": {
					"uv": [
						1,
						5,
						0.5,
						4
					],
					"texture": "#4"
				},
				"down": {
					"uv": [
						2,
						4,
						1.5,
						5
					],
					"texture": "#4"
				}
			}
		},
		{
			"name": "octagon",
			"from": [
				7.66663,
				0.74017,
				-1.96465
			],
			"to": [
				8.33337,
				2.34983,
				-0.27785
			],
			"rotation": {
				"angle": 0,
				"axis": "y",
				"origin": [
					8,
					8.14459,
					7.77907
				]
			},
			"faces": {
				"north": {
					"uv": [
						2,
						4,
						2.5,
						5
					],
					"texture": "#4"
				},
				"east": {
					"uv": [
						1,
						1,
						2,
						2
					],
					"texture": "#4"
				},
				"south": {
					"uv": [
						3,
						4,
						3.5,
						5
					],
					"texture": "#4"
				},
				"west": {
					"uv": [
						1,
						0,
						2,
						1
					],
					"texture": "#4"
				},
				"up": {
					"uv": [
						4,
						5,
						3.5,
						4
					],
					"texture": "#4"
				},
				"down": {
					"uv": [
						4.5,
						4,
						4,
						5
					],
					"texture": "#4"
				}
			}
		},
		{
			"name": "octagon",
			"from": [
				2.52855,
				3.1446,
				-1.96465
			],
			"to": [
				4.13822,
				3.81135,
				-0.27785
			],
			"rotation": {
				"angle": 45,
				"axis": "z",
				"origin": [
					8,
					8.14459,
					7.77907
				]
			},
			"faces": {
				"north": {
					"uv": [
						3.5,
						3,
						4.5,
						3.5
					],
					"texture": "#4"
				},
				"east": {
					"uv": [
						4,
						0,
						5,
						0.5
					],
					"texture": "#4"
				},
				"south": {
					"uv": [
						4,
						0.5,
						5,
						1
					],
					"texture": "#4"
				},
				"west": {
					"uv": [
						4,
						1,
						5,
						1.5
					],
					"texture": "#4"
				},
				"up": {
					"uv": [
						1,
						3,
						0,
						2
					],
					"texture": "#4"
				},
				"down": {
					"uv": [
						2,
						2,
						1,
						3
					],
					"texture": "#4"
				}
			}
		},
		{
			"name": "octagon",
			"from": [
				7.19517,
				1.21163,
				-1.96465
			],
			"to": [
				8.80483,
				1.87837,
				-0.27785
			],
			"rotation": {
				"angle": 0,
				"axis": "y",
				"origin": [
					8,
					8.14459,
					7.77907
				]
			},
			"faces": {
				"north": {
					"uv": [
						4,
						1.5,
						5,
						2
					],
					"texture": "#4"
				},
				"east": {
					"uv": [
						4,
						2,
						5,
						2.5
					],
					"texture": "#4"
				},
				"south": {
					"uv": [
						4,
						2.5,
						5,
						3
					],
					"texture": "#4"
				},
				"west": {
					"uv": [
						4.5,
						4.5,
						5.5,
						5
					],
					"texture": "#4"
				},
				"up": {
					"uv": [
						3,
						3,
						2,
						2
					],
					"texture": "#4"
				},
				"down": {
					"uv": [
						3,
						0,
						2,
						1
					],
					"texture": "#4"
				}
			}
		},
		{
			"name": "octagon",
			"from": [
				4.28326,
				2.3836,
				-0.2768
			],
			"to": [
				4.77889,
				3.58015,
				0.9093
			],
			"rotation": {
				"angle": 45,
				"axis": "z",
				"origin": [
					8,
					6.4508,
					6.1259
				]
			},
			"faces": {
				"north": {
					"uv": [
						3,
						8,
						3.5,
						8.5
					],
					"texture": "#4"
				},
				"east": {
					"uv": [
						3.5,
						8,
						4,
						8.5
					],
					"texture": "#4"
				},
				"south": {
					"uv": [
						4,
						8,
						4.5,
						8.5
					],
					"texture": "#4"
				},
				"west": {
					"uv": [
						4.5,
						8,
						5,
						8.5
					],
					"texture": "#4"
				},
				"up": {
					"uv": [
						5.5,
						8.5,
						5,
						8
					],
					"texture": "#4"
				},
				"down": {
					"uv": [
						6,
						8,
						5.5,
						8.5
					],
					"texture": "#4"
				}
			}
		},
		{
			"name": "octagon",
			"from": [
				7.75219,
				0.94673,
				-0.2768
			],
			"to": [
				8.24781,
				2.14327,
				0.9093
			],
			"rotation": {
				"angle": 0,
				"axis": "y",
				"origin": [
					8,
					6.4508,
					6.1259
				]
			},
			"faces": {
				"north": {
					"uv": [
						6,
						8,
						6.5,
						8.5
					],
					"texture": "#4"
				},
				"east": {
					"uv": [
						6.5,
						8,
						7,
						8.5
					],
					"texture": "#4"
				},
				"south": {
					"uv": [
						7,
						8,
						7.5,
						8.5
					],
					"texture": "#4"
				},
				"west": {
					"uv": [
						7.5,
						8,
						8,
						8.5
					],
					"texture": "#4"
				},
				"up": {
					"uv": [
						8.5,
						8.5,
						8,
						8
					],
					"texture": "#4"
				},
				"down": {
					"uv": [
						8.5,
						0,
						8,
						0.5
					],
					"texture": "#4"
				}
			}
		},
		{
			"name": "octagon",
			"from": [
				3.9328,
				2.73406,
				-0.2768
			],
			"to": [
				5.12935,
				3.22969,
				0.9093
			],
			"rotation": {
				"angle": 45,
				"axis": "z",
				"origin": [
					8,
					6.4508,
					6.1259
				]
			},
			"faces": {
				"north": {
					"uv": [
						8,
						0.5,
						8.5,
						1
					],
					"texture": "#4"
				},
				"east": {
					"uv": [
						8,
						1,
						8.5,
						1.5
					],
					"texture": "#4"
				},
				"south": {
					"uv": [
						8,
						1.5,
						8.5,
						2
					],
					"texture": "#4"
				},
				"west": {
					"uv": [
						8,
						2,
						8.5,
						2.5
					],
					"texture": "#4"
				},
				"up": {
					"uv": [
						8.5,
						3,
						8,
						2.5
					],
					"texture": "#4"
				},
				"down": {
					"uv": [
						8.5,
						3,
						8,
						3.5
					],
					"texture": "#4"
				}
			}
		},
		{
			"name": "octagon",
			"from": [
				7.40173,
				1.29719,
				-0.2768
			],
			"to": [
				8.59827,
				1.79281,
				0.9093
			],
			"rotation": {
				"angle": 0,
				"axis": "y",
				"origin": [
					8,
					6.4508,
					6.1259
				]
			},
			"faces": {
				"north": {
					"uv": [
						8,
						3.5,
						8.5,
						4
					],
					"texture": "#4"
				},
				"east": {
					"uv": [
						8,
						4,
						8.5,
						4.5
					],
					"texture": "#4"
				},
				"south": {
					"uv": [
						8,
						4.5,
						8.5,
						5
					],
					"texture": "#4"
				},
				"west": {
					"uv": [
						8,
						5,
						8.5,
						5.5
					],
					"texture": "#4"
				},
				"up": {
					"uv": [
						8.5,
						6,
						8,
						5.5
					],
					"texture": "#4"
				},
				"down": {
					"uv": [
						8.5,
						6,
						8,
						6.5
					],
					"texture": "#4"
				}
			}
		},
		{
			"name": "octagon",
			"from": [
				3.10956,
				2.64843,
				0.8254
			],
			"to": [
				3.76169,
				4.22283,
				1.0571
			],
			"rotation": {
				"angle": 45,
				"axis": "z",
				"origin": [
					8,
					8,
					8
				]
			},
			"faces": {
				"north": {
					"uv": [
						1,
						4.5,
						1.5,
						5.5
					],
					"texture": "#4"
				},
				"east": {
					"uv": [
						2.5,
						4.5,
						3,
						5.5
					],
					"texture": "#4"
				},
				"south": {
					"uv": [
						4.5,
						3,
						5,
						4
					],
					"texture": "#4"
				},
				"west": {
					"uv": [
						0,
						5,
						0.5,
						6
					],
					"texture": "#4"
				},
				"up": {
					"uv": [
						8.5,
						7,
						8,
						6.5
					],
					"texture": "#4"
				},
				"down": {
					"uv": [
						8.5,
						7,
						8,
						7.5
					],
					"texture": "#4"
				}
			}
		},
		{
			"name": "octagon",
			"from": [
				7.67393,
				0.7578,
				0.8254
			],
			"to": [
				8.32607,
				2.3322,
				1.0571
			],
			"faces": {
				"north": {
					"uv": [
						0.5,
						5,
						1,
						6
					],
					"texture": "#4"
				},
				"east": {
					"uv": [
						1.5,
						5,
						2,
						6
					],
					"texture": "#4"
				},
				"south": {
					"uv": [
						2,
						5,
						2.5,
						6
					],
					"texture": "#4"
				},
				"west": {
					"uv": [
						3,
						5,
						3.5,
						6
					],
					"texture": "#4"
				},
				"up": {
					"uv": [
						8.5,
						8,
						8,
						7.5
					],
					"texture": "#4"
				},
				"down": {
					"uv": [
						0.5,
						8.5,
						0,
						9
					],
					"texture": "#4"
				}
			}
		},
		{
			"name": "octagon",
			"from": [
				2.64843,
				3.10956,
				0.8254
			],
			"to": [
				4.22283,
				3.76169,
				1.0571
			],
			"rotation": {
				"angle": 45,
				"axis": "z",
				"origin": [
					8,
					8,
					8
				]
			},
			"faces": {
				"north": {
					"uv": [
						4.5,
						4,
						5.5,
						4.5
					],
					"texture": "#4"
				},
				"east": {
					"uv": [
						0.5,
						8.5,
						1,
						9
					],
					"texture": "#4"
				},
				"south": {
					"uv": [
						3.5,
						5,
						4.5,
						5.5
					],
					"texture": "#4"
				},
				"west": {
					"uv": [
						1,
						8.5,
						1.5,
						9
					],
					"texture": "#4"
				},
				"up": {
					"uv": [
						5.5,
						5.5,
						4.5,
						5
					],
					"texture": "#4"
				},
				"down": {
					"uv": [
						6,
						0,
						5,
						0.5
					],
					"texture": "#4"
				}
			}
		},
		{
			"name": "octagon",
			"from": [
				7.2128,
				1.21893,
				0.8254
			],
			"to": [
				8.7872,
				1.87107,
				1.0571
			],
			"faces": {
				"north": {
					"uv": [
						5,
						0.5,
						6,
						1
					],
					"texture": "#4"
				},
				"east": {
					"uv": [
						1.5,
						8.5,
						2,
						9
					],
					"texture": "#4"
				},
				"south": {
					"uv": [
						5,
						1,
						6,
						1.5
					],
					"texture": "#4"
				},
				"west": {
					"uv": [
						2,
						8.5,
						2.5,
						9
					],
					"texture": "#4"
				},
				"up": {
					"uv": [
						6,
						2,
						5,
						1.5
					],
					"texture": "#4"
				},
				"down": {
					"uv": [
						6,
						2,
						5,
						2.5
					],
					"texture": "#4"
				}
			}
		}
	],
	"display": {
		"thirdperson_righthand": {
			"rotation": [90, 0, 0],
			"translation": [0, 0, 3],
			"scale": [0.5, 0.5, 0.5]
		},
		"thirdperson_lefthand": {
			"rotation": [90, 0, 0],
			"translation": [0, 0, 3],
			"scale": [0.5, 0.5, 0.5]
		},
		"firstperson_righthand": {
			"rotation": [
				90,
				0,
				30
			]
		},
		"firstperson_lefthand": {
			"rotation": [
				90,
				0,
				30
			]
		},
		"fixed": {
			"rotation": [
				90,
				45,
				0
			],
			"translation": [
				1.25,
				-1.75,
				6
			]
		},
		"ground": {
			"translation": [0, 4, 0]
		},
		"gui": {
			"rotation": [90, 0, 30],
			"translation": [-3, -8, 0]
		}
	}
}