{
	"repair":"false",
	"ingredients":[
		"tardis:xion_crystal",
		"minecraft:redstone",
		"minecraft:glass",
		"tardis:circuits",
		"tardis:xion_crystal"
	],
	"result":{
		"item":"tardis:artron_battery"
	}
}