{
	"repair":"false",
	"ingredients":[
		"tardis:mercury_bottle",
		"minecraft:gold_ingot",
		"minecraft:redstone_block",
		"tardis:mercury_bottle",
		"minecraft:gold_ingot"
	],
	"result":{
		"item":"tardis:artron_capacitor"
	}
}