{
	"repair":"false",
	"ingredients":[
		"tardis:blank_upgrade",
		"minecraft:redstone",
		"minecraft:prismarine_crystals",
		"minecraft:bucket"
	],
	"result":{
		"item":"tardis:electro_convert_upgrade"
	}
}