{
	"repair":"false",
	"ingredients":[
		"tardis:xion_crystal",
		"tardis:circuits",
		"minecraft:glass_pane",
		"minecraft:iron_ingot",
		"minecraft:redstone_block"
	],
	"result":{
		"item":"tardis:interstital_antenna"
	}
}