{
	"lines":[
		"Sonic Port",
		"",
		" This allows the pilot to insert their Sonic device to receive or provide information to their time-ship",
		"It can be used to upload new desktop schematics to the databanks."
	]
}