{
	"lines":[
	"Timeship Loyalty"
	,""
	," The loyalty aspect describes how much your Timeship respects you, which affects it will treat you."
	," This aspect cannot be changed easily, much like humanoid pyschology."
	]
}