{
	"lines":[
	"Timeship Mood (Cont.)"
	,""
	,"If cloud particles appear, the Timeship mood is likely low."
	," To maintain a healthy emotional state, keep your timeship company by staying in its interior and regularly take it on flight journeys."
	]
}