[
	"It is a good time for travel",
	"Yes",
	"No",
	"Maybe",
	"Answer unclear, try again later",
	"It is certain",
	"It is decidedly so",
	"Without a doubt",
	"Yes – definitely",
	"You may rely on it",
	"As I see it, yes",
	"Most likely",
	"Outlook good",
	"Signs point to yes",
	"Reply hazy, try again",
	"Ask again later",
	"Better not tell you now",
	"Cannot predict now",
	"Concentrate and ask again",
	"Don't count on it",
	"My reply is no",
	"My sources say no",
	"Outlook not so good",
	"You are sensitive, kind, wise, generous, and gullible",
	"The end is near",
	"The end is near, and it's your fault",
	"Catch Fire, and people will come for miles to watch you burn",
	"Never gonna give you up, never gonna let you down",
	"Error 404, Future not found",
	"Future not available in all areas, individual futures may vary",
	"There is nothing important at x1023 y16 z2032",
	"No one ever said I wish I spent less time having fun",
	"Take the the long way home",
	"Everything's got to end sometime. Otherwise nothing would ever get started.",
	"Good men don't need rules.",
	"Rest is for the weary, sleep is for the dead",
	"Don't get into a spaceship with a madman",
	"A straight line may be the shortest distance between two points, but it is by no means the most interesting",
	"There’s always something to look at if you open your eyes",
	"Enjoy yourself, while you can",
	"Run.",
	"Never be certain of anything. It's a sign of weakness",
	"Always take a banana to a party",
	"To the rational mind, nothing is inexplicable; only unexplained",
	"One may tolerate a world of demons for the sake of an angel",
	"They must be fought",
	"There’s always a way out",
	"Don't blink",
	"Try reversing the polarity of the nutron flow",
	"Did you try reversing the polarity of the nutron flow?",
	"Read the manual",
	"Seriously - Read the damn manual"

]