{
  "tardis_takeoff": {
    "category": "block",
    "subtitle": "tardis.subtitle.tardis_takeoff",
    "sounds": [
      {
        "name": "tardis:tardis/tardis_takeoff",
        "stream": false
      }
    ]
  },

  "tardis_land": {
    "category": "block",
    "subtitle": "tardis.subtitle.tardis_land",
    "sounds": [
      {
        "name": "tardis:tardis/tardis_land",
        "stream": false
      }
    ]
  },
  "rotor_start": {
    "category": "block",
    "subtitle": "tardis.subtitle.rotor_start",
    "sounds": [
      {
        "name": "tardis:tardis/rotor_start",
        "stream": false
      }
    ]
  },
  "rotor_tick": {
    "category": "block",
    "subtitle": "tardis.subtitle.rotor_tick",
    "sounds": [
      {
        "name": "tardis:tardis/rotor_tick",
        "stream": false
      }
    ]
  },
  "rotor_end": {
    "category": "block",
    "subtitle": "tardis.subtitle.rotor_end",
    "sounds": [
      {
        "name": "tardis:tardis/rotor_end",
        "stream": false
      }
    ]
  },
  "bessie_drive": {
    "category": "block",
    "subtitle": "tardis.subtitle.bessie_drive",
    "sounds": [
      {
        "name": "tardis:entity/transport/bessie_drive",
        "stream": false
      }
    ]
  },

  "eye_monitor_interact": {
    "category": "block",
    "subtitle": "tardis.subtitle.monitor_open",
    "sounds": [
      {
        "name": "tardis:tardis/monitor/eye_monitor_interact",
        "stream": false
      }
    ]
  },

  "steampunk_monitor_interact": {
    "category": "block",
    "subtitle": "tardis.subtitle.monitor_open",
    "sounds": [
      {
        "name": "tardis:tardis/monitor/steampunk_monitor_interact",
        "stream": false
      }
    ]
  },

  "electric_spark": {
    "category": "block",
    "subtitle": "tardis.subtitle.electric_spark",
    "sounds": [
      {
        "name": "tardis:ambient/electric_spark_a",
        "stream": false
      },
      {
        "name": "tardis:ambient/electric_spark_b",
        "stream": false
      },
      {
        "name": "tardis:ambient/electric_spark_c",
        "stream": false
      }
    ]
  },
  "shield_hum": {
    "category": "block",
    "subtitle": "tardis.subtitle.shield_hum",
    "sounds": [
      {
        "name": "tardis:shared/shield_hum",
        "stream": true
      }
    ]
  },
  "bessie_horn": {
    "category": "block",
    "subtitle": "tardis.subtitle.bessie_horn",
    "sounds": [
      {
        "name": "tardis:entity/transport/bessie_horn",
        "stream": false
      }
    ]
  },

  "tardis_fly_loop": {
    "category": "block",
    "subtitle": "tardis.subtitle.tardis_fly_loop",
    "sounds": [
      {
        "name": "tardis:tardis/tardis_fly_loop",
        "stream": false
      }
    ]
  },

  "door_open": {
    "category": "block",
    "subtitle": "tardis.subtitle.door_open",
    "sounds": [
      {
        "name": "tardis:tardis/door_open",
        "stream": false
      }
    ]
  },

  "door_close": {
    "category": "block",
    "subtitle": "tardis.subtitle.door_close",
    "sounds": [
      {
        "name": "tardis:tardis/door_close",
        "stream": false
      }
    ]
  },

  "door_lock": {
    "category": "block",
    "subtitle": "tardis.subtitle.door_lock",
    "sounds": [
      {
        "name": "tardis:tardis/door_lock",
        "stream": false
      }
    ]
  },

  "door_unlock": {
    "category": "block",
    "subtitle": "tardis.subtitle.door_unlock",
    "sounds": [
      {
        "name": "tardis:tardis/door_unlock",
        "stream": false
      }
    ]
  },

  "door_knock": {
    "category": "block",
    "subtitle": "tardis.subtitle.door_knock",
    "sounds": [
      {
        "name": "tardis:tardis/door_knock",
        "stream": false
      }
    ]
  },

  "handbrake_engage": {
    "category": "block",
    "subtitle": "tardis.subtitle.handbrake_engage",
    "sounds": [
      {
        "name": "tardis:tardis/console/handbrake_engage",
        "stream": false
      }
    ]
  },

  "handbrake_release": {
    "category": "block",
    "subtitle": "tardis.subtitle.handbrake_release",
    "sounds": [
      {
        "name": "tardis:tardis/console/handbrake_release",
        "stream": false
      }
    ]
  },

  "throttle": {
    "category": "block",
    "subtitle": "tardis.subtitle.throttle",
    "sounds": [
      {
        "name": "tardis:tardis/console/throttle",
        "stream": false
      }
    ]
  },

  "randomiser": {
    "category": "block",
    "subtitle": "tardis.subtitle.randomiser",
    "sounds": [
      {
        "name": "tardis:tardis/console/randomiser",
        "stream": false
      }
    ]
  },

  "generic_one": {
    "category": "block",
    "subtitle": "tardis.subtitle.control_generic",
    "sounds": [
      {
        "name": "tardis:tardis/console/generic_one",
        "stream": false
      }
    ]
  },

  "generic_two": {
    "category": "block",
    "subtitle": "tardis.subtitle.control_generic",
    "sounds": [
      {
        "name": "tardis:tardis/console/generic_two",
        "stream": false
      }
    ]
  },

  "generic_three": {
    "category": "block",
    "subtitle": "tardis.subtitle.control_generic",
    "sounds": [
      {
        "name": "tardis:tardis/console/generic_three",
        "stream": false
      }
    ]
  },

  "dimension": {
    "category": "block",
    "subtitle": "tardis.subtitle.control_dimension",
    "sounds": [
      {
        "name": "tardis:tardis/console/dimension_one",
        "stream": false
      },
      {
        "name": "tardis:tardis/console/dimension_two",
        "stream": false
      },
      {
        "name": "tardis:tardis/console/dimension_three",
        "stream": false
      }
    ]
  },

  "direction": {
    "category": "block",
    "subtitle": "tardis.subtitle.control_direction",
    "sounds": [
      {
        "name": "tardis:tardis/console/direction_one",
        "stream": false
      },
      {
        "name": "tardis:tardis/console/direction_two",
        "stream": false
      },
      {
        "name": "tardis:tardis/console/direction_three",
        "stream": false
      }
    ]
  },

  "landing_type_up": {
    "category": "block",
    "subtitle": "tardis.subtitle.control_landing_type",
    "sounds": [
      {
        "name": "tardis:tardis/console/landing_type_up",
        "stream": false
      }
    ]
  },

  "landing_type_down": {
    "category": "block",
    "subtitle": "tardis.subtitle.control_landing_type",
    "sounds": [
      {
        "name": "tardis:tardis/console/landing_type_down",
        "stream": false
      }
    ]
  },

  "refuel_start": {
    "category": "block",
    "subtitle": "tardis.subtitle.control_refuel_start",
    "sounds": [
      {
        "name": "tardis:tardis/console/refuel_start",
        "stream": false
      }
    ]
  },

  "refuel_stop": {
    "category": "block",
    "subtitle": "tardis.subtitle.control_refuel_stop",
    "sounds": [
      {
        "name": "tardis:tardis/console/refuel_stop",
        "stream": false
      }
    ]
  },

  "stabilizer_on": {
    "category": "block",
    "subtitle": "tardis.subtitle.control_stabilizer_on",
    "sounds": [
      {
        "name": "tardis:tardis/console/stabilizer_on",
        "stream": false
      }
    ]
  },

  "stabilizer_off": {
    "category": "block",
    "subtitle": "tardis.subtitle.control_stabilizer_off",
    "sounds": [
      {
        "name": "tardis:tardis/console/stabilizer_off",
        "stream": false
      }
    ]
  },

  "telepathic_circuit": {
    "category": "block",
    "subtitle": "tardis.subtitle.telepathic_circuit",
    "sounds": [
      {
        "name": "tardis:tardis/console/telepathic_circuit",
        "stream": false
      }
    ]
  },

  "sonic_generic": {
    "category": "block",
    "subtitle": "tardis.subtitle.sonic_generic",
    "sounds": [
      {
        "name": "tardis:sonic/sonic_generic",
        "stream": false
      }
    ]
  },

  "single_cloister": {
    "category": "block",
    "subtitle": "tardis.subtitle.single_cloister",
    "sounds": [
      {
        "name": "tardis:tardis/console/single_cloister",
        "stream": false
      }
    ]
  },
  "vm_teleport": {
    "category": "players",
    "subtitle": "tardis.subtitle.vm_teleport",
    "sounds": [
      {
        "name": "tardis:vm/vm_teleport",
        "stream": false
      }
    ]
  },
  "vm_button": {
    "category": "players",
    "subtitle": "tardis.subtitle.vm_button",
    "sounds": [
      {
        "name": "tardis:vm/vm_button",
        "stream": false
      }
    ]
  },
  "vm_teleport_dest": {
    "category": "players",
    "subtitle": "tardis.subtitle.vm_teleport",
    "sounds": [
      {
        "name": "tardis:vm/vm_teleport_dest",
        "stream": false
      }
    ]
  },
  "paper_drop": {
    "category": "block",
    "subtitle": "tardis.subtitle.paper_drop",
    "sounds": [
      {
        "name": "tardis:blocks/paper_drop",
        "stream": false
      }
    ]
  },
  "dalek_fire": {
    "category": "block",
    "subtitle": "tardis.subtitle.dalek_fire",
    "sounds": [
      {
        "name": "tardis:entity/dalek/dalek_laser",
        "stream": false
      }
    ]
  },
  "dalek_exterminate": {
    "category": "block",
    "subtitle": "tardis.subtitle.dalek_exterminate",
    "sounds": [
      {
        "name": "tardis:entity/dalek/dalek_exterminate",
        "stream": false
      }
    ]
  },
  "dalek_hover": {
    "category": "block",
    "subtitle": "tardis.subtitle.dalek_hover",
    "sounds": [
      {
        "name": "tardis:entity/dalek/dalek_hover",
        "stream": false
      }
    ]
  },
  "dalek_moves": {
    "category": "block",
    "subtitle": "tardis.subtitle.dalek_moves",
    "sounds": [
      {
        "name": "tardis:entity/dalek/dalek_moves",
        "stream": false
      }
    ]
  },
  "dalek_death": {
    "category": "block",
    "subtitle": "tardis.subtitle.dalek_death",
    "sounds": [
      {
        "name": "tardis:entity/dalek/dalek_death",
        "stream": false
      }
    ]
  },
  "dalek_sw_fire": {
    "category": "block",
    "subtitle": "tardis.subtitle.dalek_sw_fire",
    "sounds": [
      {
        "name": "tardis:entity/dalek/special_weapon/dalek_sw_fire",
        "stream": false
      }
    ]
  },
  "dalek_sw_aim": {
    "category": "block",
    "subtitle": "tardis.subtitle.dalek_sw_aim",
    "sounds": [
      {
        "name": "tardis:entity/dalek/special_weapon/dalek_sw_aim",
        "stream": false
      }
    ]
  },
  "dalek_sw_hit_explode": {
    "category": "block",
    "subtitle": "tardis.subtitle.dalek_sw_hit_explode",
    "sounds": [
      {
        "name": "tardis:entity/dalek/special_weapon/dalek_sw_hit_explode",
        "stream": false
      }
    ]
  },
  "tardis_hum_80": {
    "category": "block",
    "subtitle": "tardis.subtitle.tardis_hum_80",
    "sounds": [
      {
        "name": "tardis:hums/tardis_hum_80",
        "stream": true
      }
    ]
  },
  "tardis_hum_70": {
    "category": "block",
    "subtitle": "tardis.subtitle.tardis_hum_70",
    "sounds": [
      {
        "name": "tardis:hums/tardis_hum_70",
        "stream": true
      }
    ]
  },
  "tardis_hum_copper": {
    "category": "block",
    "subtitle": "tardis.subtitle.tardis_hum_copper",
    "sounds": [
      {
        "name": "tardis:hums/tardis_hum_copper",
        "stream": true
      }
    ]
  },
  "tardis_hum_coral": {
    "category": "block",
    "subtitle": "tardis.subtitle.tardis_hum_coral",
    "sounds": [
      {
        "name": "tardis:hums/tardis_hum_coral",
        "stream": true
      }
    ]
  },
  "tardis_hum_toyota": {
    "category": "block",
    "subtitle": "tardis.subtitle.tardis_hum_toyota",
    "sounds": [
      {
        "name": "tardis:hums/tardis_hum_toyota",
        "stream": true
      }
    ]
  },
  "tardis_hum_63": {
    "category": "block",
    "subtitle": "tardis.subtitle.tardis_hum_63",
    "sounds": [
      {
        "name": "tardis:hums/tardis_hum_63",
        "stream": true
      }
    ]
  },
  "cant_start": {
    "category": "blocks",
    "subtitles": "tardis.subtitle.fly_fail",
    "sounds": [
      {
        "name": "tardis:tardis/tardis_cant_start",
        "stream": false
      }
    ]
  },
  "ambient_creaks": {
    "category": "ambient",
    "subtities": "tardis.subtitle.sound.ambient.creaks",
    "sounds": [
      {
        "name": "tardis:ambient/creaks_loop"
      }
    ]
  },
  "sonic_tuning": {
    "category": "block",
    "subtitle": "tardis.subtitle.sonic_tuning",
    "sounds": [
      {
        "name": "tardis:sonic/sonic_tuning",
        "stream": false
      }
    ]
  },
  "sonic_fail": {
    "category": "block",
    "subtitle": "tardis.subtitle.sonic_fail",
    "sounds": [
      {
        "name": "tardis:sonic/sonic_fail",
        "stream": false
      }
    ]
  },
  "sonic_broken": {
    "category": "block",
    "subtitle": "tardis.subtitle.sonic_broken",
    "sounds": [
      {
        "name": "tardis:sonic/sonic_broken",
        "stream": false
      }
    ]
  },
  "reached_destination": {
    "category": "block",
    "subtitle": "tardis.subtitle.reached_destination",
    "sounds": [
      {
        "name": "tardis:tardis/reached_destination",
        "stream": false
      }
    ]
  },
  "watch_tick": {
    "category": "block",
    "subtitle": "tardis.subtitle.watch_tick",
    "sounds": [
      {
        "name": "tardis:item/watch_tick",
        "stream": false
      }
    ]
  },
  "watch_malfunction": {
    "category": "block",
    "subtitle": "tardis.subtitle.watch_malfunction",
    "sounds": [
      {
        "name": "tardis:item/watch_malfunction",
        "stream": false
      }
    ]
  },
  "communicator_beep": {
    "category": "block",
    "subtitle": "tardis.subtitle.communicator_beep",
    "sounds": [
      {
        "name": "tardis:tardis/console/communicator_beep",
        "stream": false
      }
    ]
  },
  "communicator_ring": {
    "category": "block",
    "subtitle": "tardis.subtitle.communicator_ring",
    "sounds": [
      {
        "name": "tardis:tardis/console/communicator_ring",
        "stream": false
      }
    ]
  },
  "communicator_phone_pickup": {
    "category": "block",
    "subtitle": "tardis.subtitle.communicator_phone_pickup",
    "sounds": [
      {
        "name": "tardis:tardis/console/communicator_phone_pickup",
        "stream": false
      }
    ]
  },
  "communicator_steam": {
    "category": "block",
    "subtitle": "tardis.subtitle.communicator_steam",
    "sounds": [
      {
        "name": "tardis:tardis/console/communicator_steam",
        "stream": false
      }
    ]
  },
  "remote_accept": {
    "category": "block",
    "subtitle": "tardis.subtitle.remote_accept",
    "sounds": [
      {
        "name": "tardis:item/remote_accept",
        "stream": false
      }
    ]
  },
  "snap": {
    "category": "player",
    "subtitle": "tardis.subtitle.snap",
    "sounds": [
      {
        "name": "tardis:tardis/snap",
        "stream": false
      }
    ]
  },
  "takeoff_tv":{
  	"subtitle":"tardis.subtitle.tardis_takeoff",
  	"sounds":[
		{
  			"name":"tardis:tardis/tardis_takeoff_tv",
  			"stream": false
		}
	]
  },
  "land_tv":{
  	"subtitle":"tardis.subtitle.tardis_land",
  	"sounds":[
  		{
  			"name":"tardis:tardis/tardis_land_tv",
  			"stream": false
  		}
  	]
  },
  "fly_loop_tv":{
  	"subtitle":"tardis.subtitle.fly",
  	"sounds":[
  		{
  			"name":"tardis:tardis/fly_loop_tv",
  			"stream": false
  		}
  	]
  },
  "car_lock":{
  	"subtitle":"tardis.subtitle.key_beep",
  	"sounds":[
  		{
  			"name":"tardis:tardis/car_lock",
  			"stream": false
  		}
  	]
  },
  "alarm_low":{
  	"subtitle":"tardis.subtitle.alarm_low",
  	"sounds":[
  		{
  			"name":"tardis:tardis/alarm_low",
  			"stream" : false
  		}
  	]
  },
  "master_takeoff":{
  	"subtitle":"tardis.subtitle.master",
  	"sounds":[
  		{
  			"name":"tardis:tardis/master_takeoff",
  			"stream" : false
  		}
  	]
  },
  "master_land":{
  	"subtitle":"tardis.subtitle.master",
  	"sounds":[
  		{
  			"name":"tardis:tardis/master_land",
  			"stream": false
  		}
  	]
  },
  "wood_door_open":{
  	"subtitle":"tardis.subtitle.door.open",
  	"sounds":[
  		{
  			"name":"tardis:tardis/wood_door_open",
  			"stream": false
  		}
  	]
  },
  "wood_door_close":{
  	"subtitle" : "tardis.subtitle.door.close",
  	"sounds":[
  		{
  			"name":"tardis:tardis/wood_door_close",
  			"stream": false
  		}
  	]
  },
  "laser_gun_fire":{
  	"subtitle" : "tardis.subtitle.laser_gun_fire",
  	"sounds":[
  		{
  			"name":"tardis:item/laser_gun_fire",
  			"stream": false
  		}
  	]
  }
}