{
 "parent": "tardis:interior/root",
  "display": {
    "icon": {
      "item": "minecraft:iron_boots"
    },
    "title": {
      "translate": "advancements.tardis.interior.traveler"
    },
    "description": {
      "translate": "advancements.tardis.interior.traveler.desc"
    },
    "frame": "goal",
    "show_toast": true,
    "announce_to_chat": true,
    "hidden": false
  },
  "criteria": {
    "ship": {
      "trigger": "minecraft:location",
      "conditions": {
        "feature": "shipwreck"
      }
    },
    "stronghold": {
      "trigger": "minecraft:location",
      "conditions": {
        "feature": "stronghold"
      }
    },
    "desert_pyramid": {
      "trigger": "minecraft:location",
      "conditions": {
        "feature": "desert_pyramid"
      }
    },
    "mineshaft": {
      "trigger": "minecraft:location",
      "conditions": {
        "feature": "mineshaft"
      }
    },
    "mansion": {
      "trigger": "minecraft:location",
      "conditions": {
        "feature": "woodland_mansion"
      }
    },
    "temple": {
      "trigger": "minecraft:location",
      "conditions": {
        "feature": "jungle_temple"
      }
    }
  },
  "requirments":[
  	[
  		"ship"
  	],
  	[
  		"stronghold"
  	],
  	[
        "desert_pyramid"
    ],
    [
        "mineshaft"
    ],
    [
        "mansion"
    ],
    [
        "temple"
    ]
  ]
}