
   {
  "type": "minecraft:block",
  "pools": [
    {
    "name":"tardis:corridor_kill",
      "rolls": 1,
      "entries": [
        {
          "type": "minecraft:item",
          "name": "tardis:corridor_kill"
        }
      ]
    }
  ]
}
    