
   {
  "type": "minecraft:block",
  "pools": [
    {
    "name":"tardis:steel_grate_solid",
      "rolls": 1,
      "entries": [
        {
          "type": "minecraft:item",
          "name": "tardis:steel_grate_solid"
        }
      ]
    }
  ]
}
    