{
	"lines":[
	"Flight Hazards (cont.)"
		,""
		,"Time Winds"
		," Sometimes, Time Winds in the Vortex can cause hazardous turbulence."
		,"To push through this turbulence, one course of action is to increase your throttle flight speed."
	]
}