{
	"lines":[
		" In addition, as the time-ship does not have to do any work, it prefers this form of flight.",
		" During the flight, the pilot must respond to a variety of events by pressing the correct controls."
		,"The pilot has 5-10 seconds to respond."
	]
}