{
	"lines":[
		"Flight Hazards (cont.)",
		"",
		"Vertical Displacement Error",
		" Tour Timeship landing settings may drift up or down in flight",
		"Use the dimension control to realign the Timeship's destination position."
	]
}