{
	"lines":[
		" This time period depends on the throttle setting. You have less time to respond if the throttle setting is set higher."
		," If one fails to do this, the time-ship will suffer damage to its sub systems and it can go off course."
	]
}